<svg width="166" height="89" viewBox="0 0 166 89" fill="none" xmlns="http://www.w3.org/2000/svg">
<g clip-path="url(#clip0)">
<path d="M139.496 74.1091C138.765 77.3729 135.501 80.0739 132.181 80.0739C128.861 80.0739 126.779 77.4291 127.511 74.1091C128.242 70.8454 131.506 68.1444 134.826 68.1444C138.089 68.1444 140.172 70.8454 139.496 74.1091Z" fill="#051C2C"/>
<path d="M110.066 25.5471L106.184 44.0603H98.2495L100.669 34.1003L87.5017 41.2468L80.299 73.4339H92.0597L96.0549 54.358H104.102L100.163 73.4339H111.923L121.602 25.5471H110.066Z" fill="#051C2C"/>
<path d="M101.119 30.6115L91.0468 23.4651L90.5966 25.5471H72.1397C61.4481 25.5471 53.5139 31.8495 51.5444 40.4027C50.6441 44.4542 50.9817 47.6054 52.6698 49.8563C54.3017 52.0508 57.2278 53.4014 61.2793 54.0203L66.4 54.8081C67.9193 55.0332 68.8197 55.4834 69.2698 56.0461C69.7763 56.7776 69.8325 57.678 69.6075 58.8034C68.9885 61.5044 66.9064 63.0237 62.2922 63.0237H51.3756L46.2549 25.8847H37.3078L13.28 65.9498H37.2515L36.4637 56.3275H30.7241L37.9268 43.779L40.4027 73.3776H59.9851C70.0576 73.3776 79.1173 68.1444 81.1431 58.5783C82.0997 54.2454 81.8183 50.7003 79.8488 48.2807C78.2732 46.3112 75.5159 44.9607 71.3519 44.398L66.2312 43.6102C64.5993 43.3851 63.7553 42.8224 63.3051 42.2034C62.7424 41.4719 62.7424 40.6278 62.8549 40.0088C63.3051 37.9831 65.4997 35.6759 69.5512 35.6759H88.402L87.9519 37.758L101.119 30.6115Z" fill="#1C355E"/>
<path d="M136.683 59.76C128.748 59.76 120.871 66.1749 119.07 74.1091C117.269 82.0434 122.277 88.4583 130.324 88.4583C138.371 88.4583 146.249 82.0434 147.937 74.1091C149.681 66.1749 144.617 59.76 136.683 59.76ZM141.522 74.1091C140.565 78.4983 136.176 82.0434 131.731 82.0434C127.285 82.0434 124.472 78.4983 125.485 74.1091C126.498 69.72 130.887 66.1749 135.276 66.1749C139.665 66.1749 142.422 69.72 141.522 74.1091Z" fill="#051C2C"/>
<path d="M31.6807 69.4949C32.3559 70.7891 32.5247 72.421 32.1871 74.1091C31.2305 78.4983 26.8414 82.0434 22.3959 82.0434C17.9505 82.0434 15.1369 78.4983 16.1498 74.1091C16.5437 72.3647 17.4441 70.7891 18.682 69.4949H11.5356C10.6915 70.958 10.0725 72.4773 9.73491 74.1091C7.93423 82.0434 12.9424 88.4583 20.9891 88.4583C29.0359 88.4583 36.9139 82.0434 38.602 74.1091C38.9397 72.4773 38.9959 70.958 38.8271 69.4949H31.6807Z" fill="#051C2C"/>
<path d="M28.9234 69.4949H21.4393C19.8637 70.5641 18.5695 72.2522 18.1756 74.1091C17.4441 77.3729 19.5261 80.0739 22.8461 80.0739C26.1661 80.0739 29.4298 77.4291 30.1614 74.1091C30.5553 72.2522 30.0488 70.5641 28.9234 69.4949Z" fill="#051C2C"/>
<path d="M162.286 54.9769L164.368 44.7919L164.931 41.9783C166.675 33.5376 165.831 25.6034 157.222 25.6034H126.104L116.2 73.4339H117.494C119.801 64.9369 128.355 58.1281 137.02 58.1281C145.686 58.1281 151.201 64.9369 149.738 73.4339H158.403H163.243L165.831 61.4481C166.45 58.6346 164.818 55.9336 162.286 54.9769ZM153.733 49.4624H132.462C130.493 49.4624 128.974 47.6617 129.367 45.6922L131.281 35.8447C131.562 34.3817 132.856 33.3125 134.376 33.3125H151.932C154.408 33.3125 156.321 35.5634 155.871 38.0393L153.733 49.4624ZM163.862 60.8291L163.58 62.1797C163.299 63.4739 162.174 64.4305 160.823 64.4305H159.585C157.784 64.4305 156.434 62.7986 156.828 60.998L157.109 59.6475C157.391 58.3532 158.516 57.3966 159.866 57.3966H161.104C162.905 57.3966 164.256 59.0847 163.862 60.8291Z" fill="#051C2C"/>
<path d="M18.5132 26.2224L17.3315 28.1919C17.1064 28.5858 17.3878 29.0359 17.838 29.0359H32.7498C33.2 29.0359 33.4813 29.4861 33.2563 29.88L32.1871 31.6807C32.0746 31.8495 31.9058 31.962 31.6807 31.962H24.9844C24.8156 31.962 24.5905 32.0746 24.478 32.2434L22.621 35.2258C22.3959 35.6197 22.6773 36.0698 23.1275 36.0698H28.9797C29.4298 36.0698 29.6549 36.52 29.4861 36.9139L27.798 39.84C27.6854 40.0088 27.5166 40.1214 27.2915 40.1214H13.899C13.7302 40.1214 13.5051 40.2339 13.3925 40.4027L12.2671 42.2034C12.042 42.5973 12.3234 43.0475 12.7173 43.0475H21.383C21.8332 43.0475 22.1146 43.4976 21.8895 43.8915L20.4264 46.3112C20.2014 46.7051 20.4827 47.1553 20.9329 47.1553H23.4651C23.9153 47.1553 24.1966 47.6054 23.9715 47.9993L22.3397 50.9254C22.2271 51.0942 22.0583 51.2068 21.8332 51.2068H8.83457C8.66576 51.2068 8.44068 51.3193 8.38441 51.4881L7.20271 53.2888C6.97763 53.6827 7.20271 54.1329 7.65288 54.1329H16.6C17.0502 54.1329 17.3315 54.583 17.1064 54.9769C16.9939 55.1458 16.8251 55.2583 16.6 55.2583H2.02576C1.80068 55.2583 1.63186 55.3708 1.51932 55.5397L0.0562699 58.2407C-0.168815 58.6346 0.112541 59.0847 0.562711 59.0847H14.9119C15.362 59.0847 15.6434 59.5349 15.4183 59.9288L12.0983 65.162C11.8732 65.5559 12.1546 66.0061 12.6047 66.0061H19.3573C19.5824 66.0061 19.7512 65.8936 19.8637 65.7247L24.5342 57.903L25.7159 55.9336L26.1661 55.202L26.8414 54.0766L28.023 52.0508L30.9491 47.099L33.4251 42.9912L35.2258 40.0651L37.5329 36.0136H37.5891L40.1214 31.9058L41.8658 28.9797L43.2163 26.7288C43.4414 26.3349 43.16 25.8847 42.7098 25.8847H19.0759C18.7946 25.941 18.6258 26.0536 18.5132 26.2224Z" fill="#1C355E"/>
<path d="M14.0115 50.2502H18.3444C18.5132 50.2502 18.6258 50.1939 18.682 50.0251L19.92 47.943C20.0888 47.6617 19.8637 47.3241 19.5824 47.3241H15.5871C15.2495 47.3241 14.9119 47.4929 14.6868 47.8305L13.6176 49.6312C13.4488 49.9125 13.6739 50.2502 14.0115 50.2502Z" fill="#1C355E"/>
<path d="M34.9444 2.9261C35.0007 2.41966 34.8881 1.85695 34.2129 1.85695C33.7627 1.85695 33.5376 2.02576 33.2563 2.25085C32.9186 2.5322 32.6373 3.09491 32.1309 4.67051C31.962 5.17695 31.6807 6.02102 31.6244 6.47118C31.5119 7.09017 31.8495 7.48407 32.3559 7.48407C33.0312 7.48407 33.4814 6.97762 33.7627 6.41491H35.901C34.9444 8.44068 33.4814 9.34101 31.9058 9.34101C30.0488 9.34101 29.261 8.04678 29.4861 6.64C29.5424 6.2461 29.7112 5.57085 30.0488 4.61424C30.6115 2.98237 31.0054 1.85695 31.962 1.01288C32.7498 0.281356 33.819 0 34.6631 0C36.5763 0 37.2515 1.35051 37.0264 2.9261H34.9444Z" fill="#051C2C"/>
<path d="M42.5973 4.89559L41.078 9.28475H39.221L39.4461 8.72203C39.1085 9.05966 38.5458 9.34102 37.8705 9.34102C36.6326 9.34102 36.1261 8.38441 36.2949 7.4278C36.4075 6.69627 36.6888 6.13356 37.139 5.73966C37.7017 5.23322 38.4332 5.06441 39.221 5.06441H40.6278L40.7404 4.83932C40.7966 4.72678 40.7966 4.67051 40.7966 4.55797C40.7966 4.22034 40.6278 3.93898 40.0651 3.93898C39.5024 3.93898 39.0522 4.22034 38.7146 4.5017L37.9268 3.15119C38.4895 2.64475 39.2773 2.25085 40.6278 2.25085C41.8658 2.25085 42.9912 2.81356 42.8224 4.27661C42.7661 4.5017 42.6536 4.72678 42.5973 4.89559ZM39.1648 6.47119C38.602 6.47119 38.2644 6.86508 38.2081 7.25898C38.1519 7.54034 38.3207 7.76542 38.7146 7.76542C39.0522 7.76542 39.3898 7.59661 39.6149 7.4278C39.84 7.25898 39.9526 6.97763 40.0651 6.69627L40.1214 6.52746H39.1648V6.47119Z" fill="#051C2C"/>
<path d="M47.6054 4.5017C47.5492 4.38915 47.4366 4.1078 47.0427 4.1078C46.5925 4.1078 46.0861 4.5017 45.861 5.12068L44.4542 9.34102H42.4847L44.8481 2.36339H46.7051L46.48 2.98238C46.8739 2.58848 47.5492 2.30712 48.1681 2.30712C48.7871 2.30712 49.181 2.53221 49.4624 2.98238L47.6054 4.5017Z" fill="#051C2C"/>
<path d="M53.2888 8.83458C52.6698 10.6353 51.3756 11.6481 49.5749 11.6481C48.562 11.6481 47.8868 11.3668 47.3803 10.6915L48.8997 9.45356C49.0685 9.62237 49.2373 9.90373 49.8 9.90373C50.6441 9.90373 51.1505 9.28475 51.3193 8.77831L51.4881 8.27187C51.0942 8.60949 50.6441 8.83458 50.0814 8.83458C49.181 8.83458 48.337 8.27187 48.5058 6.97763C48.562 6.64 48.7309 6.13356 48.8997 5.51458C49.3498 4.1078 49.6875 3.37627 50.1939 2.86983C50.7566 2.36339 51.3756 2.19458 51.9946 2.19458C52.7261 2.19458 53.0637 2.47593 53.3451 2.86983L53.5702 2.25085H55.4271L53.2888 8.83458ZM52.1634 4.1078C51.6007 4.1078 51.3193 4.44543 50.9254 5.62712C50.8129 6.02102 50.7003 6.30237 50.7003 6.47119C50.6441 6.86509 50.7566 7.14644 51.2068 7.14644C51.7695 7.14644 52.0508 6.80882 52.4447 5.62712C52.5573 5.23322 52.6698 4.95187 52.6698 4.78305C52.6698 4.33288 52.5573 4.1078 52.1634 4.1078Z" fill="#051C2C"/>
<path d="M61.0542 5.85221C60.5478 7.25899 60.2102 7.93424 59.4786 8.6095C58.9159 9.11594 58.1281 9.45356 57.2278 9.45356C56.0461 9.45356 54.9769 8.72204 55.202 7.14644C55.2583 6.69627 55.4271 6.18983 55.5397 5.90848C56.0461 4.5017 56.3837 3.82644 57.1153 3.15119C57.678 2.64475 58.4658 2.30712 59.3661 2.30712C60.5478 2.30712 61.617 3.03865 61.3919 4.61424C61.2793 5.00814 61.1668 5.51458 61.0542 5.85221ZM58.9159 4.1078C58.6908 4.1078 58.4658 4.16407 58.297 4.33288C57.9593 4.61424 57.7342 5.12068 57.5092 5.85221C57.2841 6.52746 57.2278 6.75255 57.2278 6.86509C57.1715 7.31526 57.3403 7.59661 57.7342 7.59661C57.9593 7.59661 58.1844 7.54034 58.3532 7.37153C58.6908 7.09017 58.9159 6.58373 59.141 5.85221C59.3661 5.17695 59.4224 4.95187 59.4224 4.83933C59.4786 4.33288 59.3098 4.1078 58.9159 4.1078Z" fill="#051C2C"/>
<path d="M70.6203 2.47593C70.339 1.96949 69.8325 1.85695 69.2698 1.85695C68.4258 1.85695 67.863 2.41966 67.8068 2.86983C67.7505 3.37627 68.1444 3.48881 68.482 3.54509L69.1573 3.7139C70.6766 4.1078 71.0705 4.89559 70.9017 6.18983C70.5641 8.44068 68.6508 9.34102 66.7376 9.34102C65.2183 9.34102 64.4305 9.00339 63.7552 8.04678L65.4434 6.69627C65.781 7.20271 66.4 7.4278 67.1878 7.4278C67.9756 7.4278 68.6508 6.97763 68.7634 6.41492C68.8197 5.90847 68.5946 5.73966 68.1444 5.62712L67.4692 5.45831C65.7247 4.95186 65.6122 3.88271 65.7247 3.20746C66.0061 1.1817 67.6942 -0.0562696 69.8325 -0.0562696C70.958 -0.0562696 71.8583 0.337629 72.3085 1.12542L70.6203 2.47593Z" fill="#051C2C"/>
<path d="M77.4291 6.47119H73.5464C73.5464 6.58373 73.4902 6.69627 73.4902 6.75254C73.4339 7.31525 73.659 7.70915 74.3342 7.70915C74.8969 7.70915 75.4034 7.48407 75.8535 7.0339L76.6413 8.38441C75.8535 9.05966 74.8407 9.39729 73.8278 9.39729C72.7586 9.39729 71.2956 8.89085 71.5769 6.92136C71.9146 4.44542 73.4339 2.25085 75.6847 2.25085C77.0915 2.25085 78.0481 3.20746 77.823 4.78305C77.823 5.34576 77.598 5.90848 77.4291 6.47119ZM75.3471 3.93898C74.8407 3.93898 74.3342 4.27661 73.9403 5.17695H75.9098C75.9661 5.06441 75.9661 4.89559 75.9661 4.83932C76.0786 4.27661 75.9098 3.93898 75.3471 3.93898Z" fill="#051C2C"/>
<path d="M82.7749 4.5017C82.7186 4.38915 82.6061 4.1078 82.2122 4.1078C81.762 4.1078 81.2556 4.5017 81.0305 5.12068L79.68 9.28475H77.6542L79.9614 2.30712H81.8183L81.6495 2.9261C82.0434 2.5322 82.7186 2.25085 83.3376 2.25085C83.9566 2.25085 84.3505 2.47593 84.6881 2.9261L82.7749 4.5017Z" fill="#051C2C"/>
<path d="M86.4888 9.34102H84.9695L84.9132 2.36339H86.8264L86.6576 6.2461L89.021 2.36339H91.103L86.4888 9.34102Z" fill="#051C2C"/>
<path d="M91.497 9.34102H89.5275L91.722 2.64475H93.6915L91.497 9.34102ZM94.0292 1.63187H92.0597L92.5661 0.0562725H94.5356L94.0292 1.63187Z" fill="#051C2C"/>
<path d="M97.9681 4.55797C97.7993 4.27661 97.6305 4.1078 97.2929 4.1078C97.0678 4.1078 96.7864 4.22034 96.5614 4.44542C96.2237 4.72678 95.9424 5.23322 95.7736 5.8522C95.661 6.13356 95.6048 6.35865 95.5485 6.69627C95.4922 7.20271 95.5485 7.59661 96.1112 7.59661C96.4488 7.59661 96.7864 7.4278 97.1241 7.14644L98.0244 8.60949C97.4054 9.11593 96.5614 9.45356 95.7173 9.45356C94.5919 9.45356 93.3539 8.77831 93.6353 6.97763C93.6915 6.64 93.7478 6.2461 93.8603 5.90848C94.817 2.81356 96.5614 2.36339 97.7431 2.36339C98.7559 2.36339 99.3186 2.81356 99.6 3.32L97.9681 4.55797Z" fill="#051C2C"/>
<path d="M105.002 6.47119H101.119C101.119 6.58373 101.063 6.69627 101.063 6.75254C101.007 7.31525 101.288 7.70915 101.907 7.70915C102.47 7.70915 102.976 7.48407 103.426 7.0339L104.214 8.38441C103.426 9.05966 102.414 9.39729 101.401 9.39729C100.332 9.39729 98.8685 8.89085 99.1498 6.92136C99.4874 4.44542 100.95 2.25085 103.258 2.25085C104.664 2.25085 105.621 3.20746 105.452 4.78305C105.396 5.34576 105.227 5.90848 105.002 6.47119ZM102.976 3.93898C102.47 3.93898 101.963 4.27661 101.569 5.17695H103.539C103.595 5.06441 103.595 4.89559 103.595 4.83932C103.708 4.27661 103.483 3.93898 102.976 3.93898Z" fill="#051C2C"/>
<path d="M110.46 4.38915C110.235 4.05153 109.729 3.93898 109.391 3.93898C108.772 3.93898 108.435 4.16407 108.435 4.44542C108.435 4.61424 108.491 4.78305 108.772 4.83932L109.616 5.00814C110.798 5.23322 111.136 5.96475 111.023 6.86508C110.911 7.65288 110.517 8.21559 110.066 8.66576C109.447 9.22847 108.435 9.45356 107.591 9.45356C106.353 9.45356 105.565 9.05966 105.058 8.38441L106.634 7.09017C106.859 7.4278 107.253 7.70915 107.928 7.70915C108.603 7.70915 108.997 7.4278 109.054 7.14644C109.11 6.92136 108.941 6.80881 108.66 6.75254L107.816 6.58373C106.69 6.35864 106.353 5.68339 106.409 4.95187C106.521 4.27661 106.803 3.60136 107.365 3.09492C107.984 2.5322 108.828 2.25085 109.785 2.25085C110.798 2.25085 111.417 2.47593 111.98 3.15119L110.46 4.38915Z" fill="#051C2C"/>
<path d="M120.702 7.31525L121.715 9.34102H119.351L119.014 8.66576C118.338 9.11593 117.607 9.39729 116.706 9.39729C115.581 9.39729 114.287 8.89085 114.512 7.0339C114.737 5.40203 115.75 4.67051 116.819 4.05152C116.538 3.43254 116.425 3.03864 116.481 2.47593C116.594 1.57559 117.269 0 119.576 0C121.658 0 121.602 1.51932 121.546 2.08203C121.433 2.86983 120.814 3.54508 120.139 3.99525L119.295 4.44542L119.914 5.73966C120.308 5.40203 120.589 4.89559 120.758 4.44542H122.615C122.165 5.68339 121.546 6.58373 120.702 7.31525ZM117.438 5.4583C116.932 5.73966 116.538 6.18983 116.481 6.69627C116.425 7.20271 116.706 7.54034 117.157 7.54034C117.607 7.54034 118.001 7.31525 118.226 7.09017L117.438 5.4583ZM119.239 1.68814C118.676 1.68814 118.507 2.19458 118.451 2.47593C118.395 2.75729 118.563 2.98237 118.62 3.15119L119.014 2.9261C119.407 2.70102 119.633 2.47593 119.633 2.19458C119.689 1.91322 119.52 1.68814 119.239 1.68814Z" fill="#051C2C"/>
<path d="M29.5424 14.4054C29.261 13.899 28.7546 13.7864 28.1919 13.7864C27.3478 13.7864 26.7851 14.3492 26.6725 14.7993C26.6163 15.3058 27.0102 15.4183 27.3478 15.4746L28.023 15.6434C29.5424 16.0373 29.9363 16.8251 29.7112 18.1193C29.3736 20.3702 27.4603 21.2705 25.5471 21.2705C24.0278 21.2705 23.1837 20.9329 22.5647 19.9763L24.2529 18.6258C24.5905 19.1322 25.2095 19.3573 25.9973 19.3573C26.8414 19.3573 27.4603 18.9071 27.5729 18.3444C27.6291 17.838 27.4041 17.6692 26.9539 17.5566L26.2786 17.4441C24.5342 16.9376 24.4217 15.8685 24.5342 15.1932C24.8156 13.1675 26.56 11.9295 28.6983 11.9295C29.8237 11.9295 30.7241 12.3234 31.1742 13.1112L29.5424 14.4054Z" fill="#051C2C"/>
<path d="M34.6068 16.1498H33.5939L32.581 19.0759C32.581 19.1322 32.581 19.1322 32.5247 19.2447C32.4685 19.4698 32.6373 19.5824 32.8624 19.5824H33.4813L32.9186 21.2705H32.0183C30.8929 21.2705 30.3864 20.539 30.499 19.6386C30.5552 19.3573 30.6115 19.1885 30.6115 19.0759L31.6244 16.1498H31.0617L31.6244 14.5742H32.1871L32.8624 12.5485H34.8319L34.1566 14.5742H35.1695L34.6068 16.1498Z" fill="#051C2C"/>
<path d="M40.6278 17.7817C40.1214 19.1885 39.7837 19.8637 39.0522 20.539C38.4895 21.0454 37.7017 21.3831 36.8014 21.3831C35.6197 21.3831 34.5505 20.6515 34.7756 19.0759C34.8319 18.6258 35.0007 18.1193 35.1132 17.838C35.6197 16.4312 35.9573 15.7559 36.6888 15.0807C37.2515 14.5742 38.0393 14.2366 38.9397 14.2366C40.1214 14.2366 41.1905 14.9681 40.9654 16.5437C40.8529 16.9376 40.7403 17.4441 40.6278 17.7817ZM38.4332 16.0373C38.2081 16.0373 37.983 16.0936 37.8142 16.2624C37.4766 16.5437 37.2515 17.0502 37.0264 17.7817C36.8014 18.457 36.7451 18.682 36.7451 18.7946C36.6888 19.2447 36.8576 19.5261 37.2515 19.5261C37.4766 19.5261 37.7017 19.4698 37.8705 19.301C38.2081 19.0197 38.4332 18.5132 38.6583 17.7817C38.8834 17.1064 38.9397 16.8814 38.9397 16.7688C38.9959 16.3186 38.8271 16.0373 38.4332 16.0373Z" fill="#051C2C"/>
<path d="M45.8048 16.4312C45.7485 16.3186 45.6359 16.0373 45.242 16.0373C44.7919 16.0373 44.2854 16.4312 44.0604 17.0502L42.6536 21.2142H40.6841L43.0475 14.2366H44.9044L44.6793 14.8556C45.0732 14.4617 45.7485 14.1803 46.3675 14.1803C46.9864 14.1803 47.3803 14.4054 47.6617 14.8556L45.8048 16.4312Z" fill="#051C2C"/>
<path d="M52.8949 16.8814L51.3756 21.2705H49.5186L49.6875 20.7078C49.3498 21.0454 48.7871 21.3268 48.1119 21.3268C46.8739 21.3268 46.3675 20.3702 46.48 19.4136C46.5925 18.682 46.8739 18.1193 47.3241 17.7254C47.8868 17.219 48.6183 17.0502 49.4061 17.0502H50.8129L50.9254 16.8251C50.9817 16.7125 50.9817 16.6563 50.9817 16.5437C51.038 16.2061 50.8692 15.9247 50.2502 15.9247C49.6875 15.9247 49.181 16.2061 48.8997 16.4875L48.1119 15.137C48.6746 14.6305 49.4624 14.2366 50.8129 14.2366C52.0508 14.2366 53.2325 14.7993 53.0075 16.2624C53.0637 16.4312 52.9512 16.6563 52.8949 16.8814ZM49.4624 18.4007C48.8997 18.4007 48.562 18.7946 48.5058 19.1885C48.4495 19.4698 48.6183 19.6949 49.0122 19.6949C49.3498 19.6949 49.6875 19.5261 49.9125 19.3573C50.1376 19.1885 50.2502 18.9071 50.3627 18.6258L50.419 18.4569H49.4624V18.4007Z" fill="#051C2C"/>
<path d="M58.1281 20.7641C57.5092 22.5647 56.2149 23.5776 54.4142 23.5776C53.4014 23.5776 52.7261 23.2963 52.2197 22.621L53.739 21.383C53.9078 21.5519 54.0766 21.8332 54.6393 21.8332C55.4834 21.8332 55.9898 21.2142 56.1586 20.7078L56.3275 20.2014C55.9336 20.539 55.4834 20.7641 54.9207 20.7641C54.0203 20.7641 53.1763 20.2014 53.3451 18.9071C53.4014 18.5695 53.5702 18.0631 53.739 17.4441C54.1892 16.0373 54.5268 15.3058 55.0332 14.7993C55.5959 14.2929 56.2149 14.1241 56.8339 14.1241C57.5654 14.1241 57.9593 14.4054 58.1844 14.7993L58.4095 14.1803H60.2664L58.1281 20.7641ZM57.0027 16.0373C56.44 16.0373 56.1586 16.3749 55.7647 17.5566C55.6522 17.9505 55.5397 18.2319 55.5397 18.4007C55.4834 18.7946 55.5959 19.0759 56.0461 19.0759C56.6088 19.0759 56.8902 18.7383 57.2841 17.5566C57.3966 17.1627 57.5092 16.8814 57.5092 16.7125C57.5654 16.3186 57.4529 16.0373 57.0027 16.0373Z" fill="#051C2C"/>
<path d="M65.9498 18.4569H62.0671C62.0671 18.5695 62.0108 18.682 62.0108 18.7383C61.9546 19.301 62.1796 19.6949 62.8549 19.6949C63.4176 19.6949 63.9241 19.4698 64.3742 19.0197L65.162 20.3702C64.3742 21.0454 63.3613 21.3831 62.3485 21.3831C61.2793 21.3831 59.8163 20.8766 60.0976 18.9071C60.4352 16.4312 61.9546 14.2366 64.2617 14.2366C65.6685 14.2366 66.6251 15.1932 66.4 16.7688C66.3437 17.2753 66.1186 17.8942 65.9498 18.4569ZM63.8678 15.8685C63.3613 15.8685 62.8549 16.2061 62.461 17.1064H64.4305C64.4868 16.9939 64.4868 16.8251 64.543 16.7688C64.5993 16.2061 64.4305 15.8685 63.8678 15.8685Z" fill="#051C2C"/>
<path d="M75.6848 14.4054C75.3471 13.899 74.897 13.7864 74.3342 13.7864C73.4902 13.7864 72.9275 14.3492 72.8712 14.7993C72.8149 15.3058 73.2088 15.4183 73.5464 15.4746L74.2217 15.6434C75.741 16.0373 76.1349 16.8251 75.9661 18.1193C75.6848 20.3702 73.7153 21.2705 71.802 21.2705C70.2827 21.2705 69.4387 20.9329 68.8197 19.9763L70.5078 18.6258C70.9017 19.1322 71.4644 19.3573 72.2522 19.3573C73.0963 19.3573 73.7153 18.9071 73.8278 18.3444C73.8841 17.838 73.659 17.6692 73.2088 17.5566L72.5336 17.3878C70.7892 16.8814 70.6766 15.8122 70.7892 15.137C71.0705 13.1112 72.7587 11.8732 74.897 11.8732C76.0224 11.8732 76.9227 12.2671 77.4292 13.0549L75.6848 14.4054Z" fill="#051C2C"/>
<path d="M82.4935 17.7817C82.0434 19.1885 81.6495 19.8637 80.9742 20.539C80.4115 21.0454 79.6237 21.3831 78.7234 21.3831C77.5417 21.3831 76.4725 20.6515 76.6976 19.0759C76.7539 18.6258 76.9227 18.1193 77.0352 17.838C77.4854 16.4312 77.8793 15.7559 78.5546 15.0807C79.1173 14.5742 79.9051 14.2366 80.8054 14.2366C81.9871 14.2366 83.0562 14.9681 82.8312 16.5437C82.7749 16.9376 82.6061 17.4441 82.4935 17.7817ZM80.3552 16.0373C80.1302 16.0373 79.9051 16.0936 79.7363 16.2624C79.3986 16.5437 79.1735 17.0502 78.9485 17.7817C78.7234 18.457 78.6671 18.682 78.6671 18.7946C78.6108 19.2447 78.7796 19.5261 79.1735 19.5261C79.3986 19.5261 79.6237 19.4698 79.7925 19.301C80.1302 19.0197 80.3552 18.5132 80.5803 17.7817C80.8054 17.1064 80.8617 16.8814 80.8617 16.7688C80.9179 16.3186 80.7491 16.0373 80.3552 16.0373Z" fill="#051C2C"/>
<path d="M85.2508 19.0759C85.2508 19.1322 85.1946 19.1885 85.1946 19.2447C85.1946 19.4136 85.3071 19.5261 85.5322 19.5261H86.2637L85.701 21.2142H84.7444C83.619 21.2142 83.0563 20.4827 83.2251 19.5824C83.2813 19.3573 83.2813 19.1885 83.3376 19.0197L85.6447 11.9858H87.6142L85.2508 19.0759Z" fill="#051C2C"/>
<path d="M92.1722 21.2705H90.3152L90.4841 20.6515C89.9776 21.1017 89.3024 21.3268 88.7397 21.3268C88.0644 21.3268 87.1641 20.8766 87.3329 19.4136C87.3891 19.1322 87.4454 18.8508 87.5017 18.6258L88.9085 14.2929H90.878L89.4712 18.5132C89.4149 18.6258 89.4149 18.7383 89.3586 18.8508C89.3024 19.301 89.5837 19.5261 89.8088 19.5261C90.259 19.5261 90.7091 19.301 90.9905 18.5132L92.3973 14.2929H94.3668L92.1722 21.2705Z" fill="#051C2C"/>
<path d="M98.4183 16.1498H97.4054L96.4488 19.0759C96.4488 19.1322 96.4488 19.1322 96.3925 19.2447C96.3363 19.4698 96.5051 19.5824 96.7302 19.5824H97.3492L96.7864 21.2705H95.8861C94.7607 21.2705 94.198 20.539 94.3668 19.6386C94.423 19.3573 94.4793 19.1885 94.4793 19.0759L95.4359 16.1498H94.8732L95.3797 14.5742H95.9424L96.6176 12.5485H98.5871L97.9119 14.5742H98.9248L98.4183 16.1498Z" fill="#051C2C"/>
<path d="M99.9939 21.2705H98.0244L100.219 14.5742H102.188L99.9939 21.2705ZM102.47 13.6176H100.5L101.007 12.042H102.976L102.47 13.6176Z" fill="#051C2C"/>
<path d="M107.872 17.7817C107.422 19.1885 107.028 19.8637 106.353 20.539C105.79 21.0454 105.002 21.3831 104.102 21.3831C102.92 21.3831 101.851 20.6515 102.076 19.0759C102.132 18.6258 102.301 18.1193 102.357 17.838C102.807 16.4312 103.201 15.7559 103.877 15.0807C104.439 14.5742 105.227 14.2366 106.127 14.2366C107.309 14.2366 108.378 14.9681 108.153 16.5437C108.153 16.9376 107.984 17.4441 107.872 17.7817ZM105.734 16.0373C105.508 16.0373 105.283 16.0936 105.115 16.2624C104.777 16.5437 104.608 17.0502 104.327 17.7817C104.102 18.457 104.045 18.682 104.045 18.7946C103.989 19.2447 104.158 19.5261 104.552 19.5261C104.777 19.5261 105.002 19.4698 105.171 19.301C105.508 19.0197 105.677 18.5132 105.959 17.7817C106.184 17.1064 106.24 16.8814 106.24 16.7688C106.296 16.3186 106.127 16.0373 105.734 16.0373Z" fill="#051C2C"/>
<path d="M114.906 16.9376L113.499 21.2705H111.529L112.88 17.0502C112.936 16.9376 112.936 16.8251 112.936 16.7125C112.993 16.2624 112.711 16.0373 112.43 16.0373C111.98 16.0373 111.529 16.2624 111.248 17.0502L109.898 21.2705H108.041L110.292 14.2929H112.148L111.98 14.9119C112.486 14.4617 113.161 14.2366 113.724 14.2366C114.399 14.2366 115.3 14.6868 115.131 16.1498C115.075 16.4312 115.018 16.7125 114.906 16.9376Z" fill="#051C2C"/>
<path d="M120.139 16.3186C119.914 15.981 119.407 15.8685 119.07 15.8685C118.451 15.8685 118.113 16.0936 118.113 16.3749C118.113 16.5437 118.169 16.7125 118.507 16.7688L119.351 16.9376C120.533 17.1627 120.871 17.8942 120.758 18.7946C120.645 19.5824 120.252 20.1451 119.801 20.5953C119.182 21.158 118.169 21.3831 117.325 21.3831C116.087 21.3831 115.3 20.9892 114.793 20.3139L116.369 19.0197C116.594 19.3573 116.988 19.6386 117.663 19.6386C118.338 19.6386 118.732 19.3573 118.788 19.0759C118.845 18.8509 118.676 18.7383 118.395 18.682L117.551 18.5132C116.425 18.2881 116.087 17.6129 116.144 16.8814C116.256 16.2061 116.538 15.5309 117.1 15.0244C117.719 14.4617 118.563 14.1803 119.52 14.1803C120.533 14.1803 121.208 14.4054 121.715 15.0807L120.139 16.3186Z" fill="#051C2C"/>
<path d="M156.04 23.7464H126.61L130.212 6.58373L141.184 8.94712C149.85 10.5227 156.715 18.6258 158.628 23.7464H156.04Z" fill="#051C2C"/>
</g>
<defs>
<clipPath id="clip0">
<rect width="166" height="88.4583" fill="white"/>
</clipPath>
</defs>
</svg>
