<svg width="1920" height="815" viewBox="0 0 1920 815" fill="none" xmlns="http://www.w3.org/2000/svg">
<rect width="1920" height="815" fill="#1C355E"/>
<g style="mix-blend-mode:luminosity" opacity="0.67">
<path d="M1561.68 698.212C1561.68 698.212 1416.87 384.656 1085.31 394.41C912.539 399.467 714.597 553.476 603.615 543.843C492.633 534.21 336.958 531.32 350.47 697.369L1561.68 698.212Z" fill="#25A3FF"/>
<path d="M999.385 407.415C1102.05 412.713 1137.97 387.546 1063.83 395.734C1063.83 395.734 1049.62 397.059 1033.34 399.949C1026.06 401.273 999.385 407.415 999.385 407.415Z" fill="#219BFF"/>
<path d="M415.488 650.769C403.362 597.065 437.546 558.894 475.657 555.041C487.552 553.837 495.867 542.036 492.864 529.875C459.95 395.975 640.455 309.519 723.258 455.098C804.56 397.661 917.274 434.267 983.794 573.585C1025.95 572.501 962.544 698.092 962.544 698.092H450.481H437.777H331.761C307.047 658.957 343.772 615.248 415.488 650.769Z" fill="#0086FF"/>
<path d="M983.794 573.585C917.159 434.387 804.56 397.781 723.258 455.098C716.56 443.298 709.284 433.183 701.431 424.272V698.092H962.545C962.545 698.092 1025.95 572.38 983.794 573.585Z" fill="#003AFF"/>
<path d="M823.731 698.212C823.731 698.212 760.444 370.568 604.77 380.322C560.077 383.091 515.615 406.331 510.533 472.076C505.105 541.796 585.022 639.812 589.756 684.605C589.756 684.605 559.846 656.429 522.659 662.449C484.202 668.711 368.024 737.346 332.454 651.01C324.486 659.921 321.829 672.323 325.64 685.208C326.564 688.218 327.835 691.349 329.452 694.479C330.144 695.684 330.837 696.888 331.53 698.092H437.662H450.365H655.352L823.731 698.212Z" fill="#0065FF"/>
<path d="M466.071 654.261C453.137 654.261 440.664 641.859 435.698 634.995C435.237 634.273 435.352 633.43 436.045 632.828C436.738 632.346 437.546 632.467 438.124 633.189C442.05 638.608 454.985 652.455 467.803 651.251C468.612 651.131 469.305 651.733 469.42 652.576C469.536 653.418 468.958 654.141 468.15 654.261C467.226 654.141 466.649 654.261 466.071 654.261Z" fill="#78C4FF"/>
<path d="M461.221 621.268C460.643 621.268 460.066 620.907 459.835 620.305C459.604 619.582 459.95 618.619 460.643 618.378C471.499 614.164 477.273 598.51 478.082 593.573C478.197 592.73 479.006 592.128 479.699 592.369C480.507 592.489 480.969 593.332 480.853 594.055C479.929 599.714 473.809 616.452 461.567 621.148C461.567 621.148 461.336 621.268 461.221 621.268Z" fill="#78C4FF"/>
<path d="M458.68 611.755C458.911 613.802 459.142 616.09 459.489 618.499C459.835 621.027 460.297 623.676 460.643 626.446C461.105 629.215 461.683 632.226 462.26 635.236C462.607 636.801 462.838 638.367 463.184 639.932C463.531 641.497 463.877 643.063 464.339 644.628C464.685 646.194 465.147 647.879 465.494 649.445C465.956 651.01 466.302 652.696 466.764 654.261C467.804 657.633 468.612 660.764 469.651 663.774C470.229 665.339 470.691 666.905 471.153 668.35C471.73 669.795 472.307 671.36 472.885 672.805C473.924 675.695 475.195 678.464 476.349 681.113C476.927 682.438 477.504 683.642 478.082 684.846C478.659 686.05 479.237 687.254 479.814 688.338C480.853 690.626 482.124 692.553 483.048 694.359C483.856 695.804 484.549 697.008 485.242 698.092H490.439C490.092 697.61 489.746 697.008 489.284 696.406C488.475 695.202 487.552 693.877 486.628 692.071C485.704 690.385 484.549 688.458 483.394 686.291C482.817 685.207 482.239 684.124 481.662 682.92C481.084 681.715 480.391 680.511 479.93 679.307C478.775 676.778 477.504 674.129 476.465 671.239C475.888 669.794 475.31 668.35 474.733 666.905C474.155 665.46 473.693 663.894 473.116 662.449C471.961 659.439 471.153 656.308 470.113 653.178C469.651 651.612 469.189 650.047 468.843 648.481C468.381 646.916 467.919 645.351 467.573 643.785C467.226 642.22 466.764 640.655 466.418 639.089C466.071 637.524 465.725 635.958 465.378 634.514C464.685 631.503 464.223 628.613 463.646 625.844C463.184 623.074 462.722 620.425 462.376 618.017C462.029 615.609 461.683 613.321 461.452 611.394C461.221 609.468 460.99 607.661 460.874 606.216C460.643 603.327 460.412 601.641 460.412 601.641C460.297 600.798 459.604 600.196 458.796 600.316C457.987 600.437 457.41 601.159 457.525 602.002C457.525 602.002 457.641 603.688 457.872 606.578C458.218 607.902 458.334 609.708 458.68 611.755Z" fill="#78C4FF"/>
<path d="M369.294 678.344C369.641 679.066 370.103 679.789 370.68 680.752C371.257 681.716 371.95 682.679 372.759 683.763C373.105 684.365 373.567 684.846 374.029 685.328C374.491 685.93 374.953 686.412 375.53 687.014C376.57 688.097 377.725 689.302 378.995 690.265C379.572 690.867 380.265 691.349 380.958 691.83C381.651 692.312 382.344 692.914 383.037 693.396C383.73 693.877 384.538 694.359 385.231 694.841C385.924 695.322 386.732 695.684 387.541 696.165C388.349 696.647 389.042 697.008 389.851 697.369C390.428 697.61 391.005 697.971 391.698 698.212H406.942C406.712 698.212 406.365 698.092 406.134 698.092C404.979 697.851 403.593 697.61 402.323 697.369C400.937 697.008 399.551 696.767 398.05 696.286C397.357 696.045 396.549 695.804 395.856 695.563C395.163 695.322 394.355 695.081 393.662 694.72C392.853 694.479 392.16 694.118 391.467 693.757C390.774 693.396 389.966 693.155 389.273 692.794C388.58 692.432 387.772 692.071 387.079 691.71C386.386 691.349 385.693 690.867 385 690.506C384.307 690.144 383.73 689.542 383.037 689.181C382.344 688.7 381.767 688.218 381.189 687.736C380.034 686.773 378.995 685.81 377.956 684.726C377.494 684.244 377.032 683.642 376.57 683.161C376.108 682.679 375.646 682.197 375.299 681.716C374.491 680.752 373.798 679.909 373.336 679.066C372.759 678.224 372.297 677.501 371.95 676.899C371.257 675.575 370.795 674.852 370.795 674.852C370.449 674.13 369.525 673.889 368.832 674.25C368.139 674.611 367.908 675.575 368.255 676.297C368.255 676.297 368.601 677.019 369.294 678.344Z" fill="#78C4FF"/>
<path d="M411.215 698.212C411.1 698.092 411.1 697.971 410.985 697.851C408.328 695.322 399.667 686.291 399.436 674.972C399.436 674.129 398.743 673.527 397.935 673.527C397.126 673.527 396.549 674.25 396.549 675.093C396.78 685.689 403.478 694.238 407.289 698.333H411.215V698.212Z" fill="#78C4FF"/>
<path d="M1345.61 698.332C1346.88 688.579 1374.94 656.308 1389.38 659.559C1396.77 661.245 1397.46 670.637 1397.46 670.637C1397.46 670.637 1417.56 626.205 1462.02 633.55C1506.48 640.895 1530.5 682.197 1530.5 682.197C1530.5 682.197 1552.33 669.433 1564.11 676.056C1576.7 683.16 1570.92 698.212 1570.92 698.212H1345.61V698.332Z" fill="#0065FF"/>
<path d="M1478.19 688.218C1477.84 688.218 1477.5 688.097 1477.15 687.736C1476.57 687.134 1476.57 686.171 1477.15 685.569C1480.96 681.354 1486.16 680.391 1490.66 679.428C1494.24 678.705 1497.24 678.103 1498.86 676.177C1499.44 675.574 1500.36 675.454 1500.94 676.056C1501.52 676.658 1501.63 677.621 1501.05 678.224C1498.75 680.873 1495.05 681.595 1491.24 682.438C1486.97 683.281 1482.46 684.244 1479.34 687.736C1478.88 687.977 1478.54 688.218 1478.19 688.218Z" fill="#78C4FF"/>
<path d="M1460.87 698.092C1460.87 698.212 1460.87 698.212 1460.87 698.333H1463.75C1465.95 682.92 1461.33 671.119 1457.17 663.894C1456.71 663.172 1455.9 662.931 1455.21 663.413C1454.51 663.894 1454.28 664.737 1454.75 665.46C1458.67 672.203 1462.94 683.401 1460.87 698.092Z" fill="#78C4FF"/>
<path d="M1471.95 698.333C1475.76 693.998 1478.54 688.94 1481.31 684.124C1486.04 675.695 1490.08 668.35 1498.17 666.423C1498.98 666.182 1499.44 665.46 1499.21 664.617C1498.98 663.774 1498.28 663.292 1497.47 663.533C1488.12 665.701 1483.62 674.009 1478.77 682.679C1475.65 688.218 1472.53 693.998 1467.91 698.453H1471.95V698.333Z" fill="#78C4FF"/>
<path d="M902.03 698.212C888.287 674.852 892.791 652.937 908.266 640.896C923.857 628.854 982.87 603.567 992.571 588.395C1002.27 573.344 1022.71 509.043 1093.16 501.457C1186.36 491.463 1230.24 557.811 1230.24 557.811L1239.36 698.212H902.03Z" fill="#0086FF"/>
<path d="M1237.98 676.538L1263.04 576.956C1263.04 576.956 1201.02 499.049 1113.37 500.373C1093.62 506.394 1066.94 532.042 1073.3 567.805C1081.03 611.033 1155.29 639.812 1160.14 684.605C1160.14 684.605 1130.23 656.429 1093.04 662.449C1054.01 668.831 935.29 739.273 901.453 647.518C891.636 660.162 890.366 678.585 901.915 698.212H1225.74L1237.98 676.538Z" fill="#0065FF"/>
<path d="M1091.66 583.579C1090.5 583.579 1089.23 583.579 1088.08 583.458C1087.27 583.338 1086.69 582.616 1086.81 581.773C1086.92 580.93 1087.62 580.328 1088.42 580.448C1110.25 582.375 1138.31 564.192 1141.89 560.339C1142.47 559.737 1143.4 559.737 1143.97 560.219C1144.55 560.821 1144.55 561.784 1144.09 562.386C1140.05 566.721 1113.83 583.579 1091.66 583.579Z" fill="#78C4FF"/>
<path d="M1117.3 647.639C1113.83 647.639 1110.94 647.398 1109.1 647.036C1108.29 646.916 1107.83 646.073 1107.94 645.23C1108.06 644.387 1108.87 643.906 1109.67 644.026C1116.49 645.351 1139.82 644.869 1151.94 635.959C1152.63 635.477 1153.44 635.597 1153.9 636.32C1154.37 637.042 1154.25 637.885 1153.56 638.367C1143.97 645.592 1127.69 647.639 1117.3 647.639Z" fill="#78C4FF"/>
<path d="M1034.03 602.363C1034.84 608.384 1035.99 615.488 1037.73 622.954C1038.53 626.687 1039.57 630.54 1040.61 634.393C1041.65 638.246 1043.04 642.1 1044.31 646.073C1045.69 649.926 1047.2 653.78 1048.81 657.392C1050.43 661.125 1052.16 664.617 1054.01 667.988C1054.47 668.831 1054.93 669.674 1055.4 670.517C1055.86 671.36 1056.32 672.082 1056.78 672.925C1057.7 674.491 1058.74 676.056 1059.67 677.501C1061.63 680.391 1063.59 683.04 1065.44 685.448C1067.41 687.857 1069.14 689.904 1070.87 691.71C1072.49 693.516 1074.1 694.961 1075.37 696.285C1076.18 697.008 1076.88 697.73 1077.57 698.212H1083.11C1083.11 697.61 1082.88 696.887 1082.3 696.526L1082.19 696.406C1082.19 696.406 1081.84 696.045 1081.15 695.443C1080.46 694.84 1079.42 693.998 1078.15 692.793C1076.88 691.589 1075.37 690.265 1073.76 688.459C1072.14 686.773 1070.29 684.726 1068.45 682.438C1066.6 680.15 1064.63 677.621 1062.79 674.852C1061.86 673.407 1060.82 671.962 1059.9 670.517C1059.44 669.795 1058.98 668.952 1058.51 668.229C1058.05 667.386 1057.59 666.664 1057.13 665.821C1055.28 662.57 1053.55 659.198 1051.93 655.586C1050.31 651.973 1048.81 648.361 1047.43 644.628C1046.04 640.895 1044.77 637.042 1043.62 633.309C1042.46 629.577 1041.54 625.723 1040.61 622.111C1038.88 614.766 1037.61 607.782 1036.69 601.882C1035.76 595.861 1035.3 590.924 1034.95 587.312C1034.61 583.82 1034.49 581.773 1034.49 581.773C1034.38 580.93 1033.68 580.328 1032.88 580.448C1032.07 580.568 1031.49 581.291 1031.61 582.134C1031.61 582.134 1031.72 584.181 1032.07 587.673C1032.76 591.165 1033.22 596.222 1034.03 602.363Z" fill="#78C4FF"/>
<path d="M1108.98 548.539C1108.4 547.937 1107.48 547.937 1106.9 548.539C1106.9 548.539 1106.44 549.02 1105.75 549.863C1105.4 550.345 1104.82 550.947 1104.36 551.549C1103.78 552.271 1103.21 552.994 1102.63 553.837C1101.36 555.643 1099.86 557.69 1098.24 560.339C1096.62 562.868 1094.89 565.758 1093.04 569.009C1091.2 572.26 1089.46 575.872 1087.62 579.726C1085.77 583.579 1083.92 587.673 1082.3 592.008C1081.38 594.175 1080.69 596.463 1079.76 598.631C1078.95 600.918 1078.15 603.206 1077.45 605.614C1075.95 610.311 1074.8 615.127 1073.64 620.064C1072.6 625.001 1071.68 629.938 1071.1 634.754C1070.41 639.691 1070.18 644.508 1069.95 649.204C1069.95 651.612 1069.95 653.9 1069.95 656.188C1070.06 658.476 1070.18 660.643 1070.29 662.811C1070.52 664.978 1070.64 667.025 1070.99 669.072C1071.33 671.119 1071.56 673.046 1071.91 674.852C1072.26 676.658 1072.72 678.464 1073.06 680.15C1073.53 681.836 1073.87 683.401 1074.33 684.846C1074.68 686.291 1075.14 687.736 1075.61 688.94C1076.07 690.144 1076.41 691.349 1076.76 692.432C1077.57 694.479 1078.26 696.045 1078.61 697.128C1078.72 697.369 1078.84 697.61 1078.95 697.851H1083.46C1083.46 697.61 1083.34 697.249 1083.34 697.008V696.888C1083.34 696.888 1083.11 696.286 1082.65 695.322C1082.19 694.238 1081.61 692.794 1080.8 690.747C1080.46 689.783 1080.11 688.699 1079.65 687.495C1079.19 686.291 1078.72 684.967 1078.38 683.522C1078.03 682.077 1077.57 680.632 1077.11 678.946C1076.76 677.381 1076.41 675.574 1075.95 673.889C1075.61 672.082 1075.37 670.276 1075.03 668.229C1074.68 666.303 1074.57 664.256 1074.33 662.209C1074.1 660.162 1074.1 657.994 1073.87 655.827C1073.87 653.659 1073.76 651.371 1073.76 649.084C1073.87 644.508 1074.1 639.812 1074.68 634.995C1075.14 630.179 1076.07 625.362 1076.99 620.546C1078.03 615.729 1079.19 611.033 1080.57 606.457C1081.26 604.17 1082.07 601.882 1082.77 599.594C1083.57 597.426 1084.27 595.139 1085.19 593.091C1086.81 588.757 1088.54 584.783 1090.27 580.93C1092 577.077 1093.85 573.585 1095.58 570.333C1097.32 567.082 1099.05 564.192 1100.55 561.784C1102.05 559.255 1103.55 557.208 1104.82 555.402C1105.4 554.559 1105.98 553.837 1106.56 553.235C1107.02 552.633 1107.48 552.151 1107.83 551.669C1108.63 550.827 1108.98 550.345 1108.98 550.345C1109.56 550.104 1109.56 549.141 1108.98 548.539Z" fill="#78C4FF"/>
<path d="M1151.83 597.908C1151.13 597.547 1150.21 597.788 1149.86 598.51C1149.86 598.51 1149.63 598.992 1149.17 599.714C1148.71 600.557 1148.13 601.52 1147.21 602.845C1146.28 604.17 1145.01 605.735 1143.51 607.541C1142.01 609.347 1140.28 611.274 1138.31 613.321C1130.46 621.75 1119.26 632.226 1108.75 643.424C1106.09 646.194 1103.55 649.084 1101.01 651.973C1098.59 654.863 1096.16 657.753 1093.97 660.764C1091.77 663.654 1089.69 666.664 1087.96 669.554C1086.23 672.444 1084.61 675.334 1083.46 678.103C1083.11 678.826 1082.88 679.428 1082.53 680.15C1082.3 680.873 1082.07 681.475 1081.84 682.197C1081.61 682.799 1081.38 683.522 1081.15 684.124C1080.92 684.726 1080.8 685.328 1080.57 685.93C1080.46 686.532 1080.22 687.134 1080.11 687.736C1079.99 688.338 1079.88 688.82 1079.76 689.422C1079.65 689.904 1079.53 690.506 1079.42 690.987C1079.42 691.469 1079.3 691.951 1079.3 692.432C1079.19 693.396 1079.07 694.118 1079.07 694.84C1079.07 695.563 1079.07 696.165 1079.07 696.647C1079.07 697.369 1079.07 697.73 1079.07 697.971H1083.46V697.73C1083.46 697.73 1083.46 697.249 1083.46 696.406C1083.46 695.924 1083.46 695.443 1083.46 694.84C1083.46 694.238 1083.57 693.516 1083.57 692.673C1083.57 692.312 1083.69 691.83 1083.69 691.469C1083.8 690.987 1083.8 690.626 1083.92 690.144C1084.04 689.663 1084.15 689.181 1084.15 688.699C1084.27 688.218 1084.38 687.616 1084.61 687.134C1084.73 686.532 1084.96 686.05 1085.07 685.448C1085.19 684.846 1085.42 684.244 1085.65 683.642C1085.88 683.04 1086.11 682.438 1086.35 681.836C1086.58 681.234 1086.92 680.632 1087.15 679.909C1088.31 677.26 1089.69 674.611 1091.31 671.842C1093.04 669.072 1094.89 666.182 1097.09 663.292C1099.16 660.402 1101.47 657.512 1103.9 654.623C1106.32 651.733 1108.87 648.843 1111.41 646.073C1121.8 634.754 1132.89 624.158 1140.62 615.609C1142.59 613.441 1144.32 611.394 1145.82 609.588C1147.32 607.782 1148.59 606.096 1149.52 604.651C1150.44 603.206 1151.25 601.882 1151.71 601.159C1152.17 600.316 1152.4 599.955 1152.4 599.955C1152.75 599.233 1152.52 598.39 1151.83 597.908Z" fill="#78C4FF"/>
<path d="M850.292 406.692C864.382 358.286 922.702 328.664 949.264 382.248C964.854 413.796 946.146 445.224 969.012 462.082C991.994 478.94 1038.88 493.149 1031.03 552.271C1022.14 619.101 952.613 652.335 898.219 626.687C818.534 589.238 840.13 441.853 850.292 406.692Z" fill="#0099FF"/>
<path d="M907.111 564.794C858.145 570.213 845.673 514.221 839.783 487.128C838.744 541.073 849.946 604.049 898.219 626.807C942.912 647.759 997.652 629.215 1020.86 585.024C1015.32 529.634 956.077 559.376 907.111 564.794Z" fill="#0068FF"/>
<path d="M1184.16 698.212C1133.46 639.571 1191.78 503.986 1296.18 508.802C1358.78 511.692 1332.56 563.229 1340.07 572.742C1347.69 582.254 1372.06 574.187 1384.76 597.186C1399.2 623.195 1387.76 680.873 1351.5 698.212H1184.16Z" fill="#0086FF"/>
<path d="M1381.99 592.851C1353.23 619.944 1337.07 589.599 1291.68 603.447C1241.1 618.86 1193.29 696.887 1166.03 633.189C1163.95 657.753 1169.5 681.234 1184.16 698.212H1351.39C1387.76 680.873 1399.08 623.195 1384.65 597.185C1383.84 595.62 1382.91 594.175 1381.99 592.851Z" fill="#003AFF"/>
<path d="M1257.84 577.438C1257.61 577.438 1257.38 577.438 1257.26 577.317C1245.95 571.899 1236.13 557.088 1231.16 548.78C1230.7 548.057 1230.93 547.094 1231.63 546.732C1232.32 546.251 1233.24 546.492 1233.59 547.214C1237.4 553.716 1247.45 569.25 1258.42 574.548C1259.11 574.909 1259.46 575.752 1259.11 576.595C1258.88 577.077 1258.42 577.438 1257.84 577.438Z" fill="#78C4FF"/>
<path d="M1258.42 630.299C1258.3 630.299 1258.07 630.299 1257.96 630.179C1235.78 622.472 1213.84 597.547 1209.92 590.804C1209.45 590.081 1209.68 589.118 1210.38 588.757C1211.07 588.275 1211.99 588.516 1212.34 589.238C1216.04 595.62 1237.63 619.944 1258.88 627.409C1259.69 627.65 1260.04 628.493 1259.81 629.336C1259.57 629.817 1259 630.299 1258.42 630.299Z" fill="#78C4FF"/>
<path d="M1198.83 632.948C1198.02 632.948 1197.33 632.226 1197.33 631.383C1197.33 630.54 1198.02 629.818 1198.83 629.818C1203.33 629.818 1225.39 621.991 1231.16 611.876C1231.63 611.153 1232.43 610.913 1233.13 611.394C1233.82 611.876 1234.05 612.719 1233.59 613.441C1227.35 624.64 1204.37 632.948 1198.83 632.948Z" fill="#78C4FF"/>
<path d="M1290.18 605.374C1289.48 605.374 1288.91 604.892 1288.79 604.17C1288.68 603.327 1289.14 602.604 1289.95 602.363C1305.88 599.233 1322.28 578.883 1325.4 574.909C1325.86 574.307 1326.79 574.187 1327.48 574.668C1328.06 575.15 1328.17 576.113 1327.71 576.836C1323.09 582.736 1306.92 602.123 1290.52 605.374C1290.29 605.374 1290.29 605.374 1290.18 605.374Z" fill="#78C4FF"/>
<path d="M1257.03 634.634C1257.5 639.691 1258.07 644.628 1258.77 649.445C1259.46 654.261 1260.27 658.837 1261.19 663.292C1261.42 664.376 1261.65 665.46 1261.88 666.543C1262.11 667.627 1262.35 668.59 1262.58 669.674C1263.04 671.721 1263.62 673.648 1264.08 675.574C1265.12 679.307 1266.27 682.679 1267.43 685.689C1268 687.134 1268.58 688.579 1269.16 689.783C1269.39 690.385 1269.74 690.987 1269.97 691.589C1270.31 692.191 1270.55 692.673 1270.78 693.275C1271.35 694.359 1271.82 695.322 1272.28 696.045C1272.62 696.647 1272.97 697.249 1273.32 697.73H1278.28C1278.28 697.49 1278.17 697.249 1278.05 697.008C1278.05 697.008 1277.71 696.526 1277.13 695.443C1276.78 694.961 1276.44 694.359 1275.97 693.636C1275.51 692.914 1275.16 692.071 1274.59 691.108C1274.36 690.626 1274.13 690.144 1273.78 689.663C1273.55 689.061 1273.32 688.579 1272.97 687.977C1272.39 686.773 1271.82 685.569 1271.35 684.124C1270.2 681.354 1269.04 677.983 1268 674.37C1267.43 672.564 1266.97 670.637 1266.39 668.711C1266.16 667.748 1265.93 666.664 1265.58 665.701C1265.35 664.617 1265.12 663.654 1264.89 662.57C1263.96 658.355 1263.15 653.78 1262.46 649.084C1261.77 644.387 1261.08 639.45 1260.61 634.393C1260.15 629.336 1259.69 624.278 1259.46 619.221C1258.3 598.751 1258.77 578.281 1260.15 562.988C1260.5 559.135 1260.84 555.643 1261.31 552.633C1261.77 549.502 1262.11 546.853 1262.58 544.685C1263.04 542.518 1263.39 540.832 1263.73 539.748C1264.08 538.665 1264.19 538.063 1264.19 538.063V537.942C1264.42 537.099 1264.08 536.257 1263.27 536.016C1262.46 535.775 1261.65 536.136 1261.42 536.979C1261.42 536.979 1261.19 537.581 1260.84 538.785C1260.5 539.989 1260.04 541.796 1259.57 543.963C1259.11 546.251 1258.65 548.9 1258.19 552.031C1257.73 555.161 1257.26 558.653 1256.92 562.507C1255.42 577.919 1254.72 598.63 1255.76 619.342C1256.23 624.399 1256.57 629.577 1257.03 634.634Z" fill="#78C4FF"/>
<path d="M1306.12 550.586C1305.31 550.586 1304.61 551.188 1304.61 552.031C1304.61 552.031 1304.61 552.151 1304.61 552.512C1304.61 552.873 1304.5 553.114 1304.5 553.596C1304.38 554.559 1304.04 556.125 1303.57 558.172C1302.53 562.145 1300.8 567.684 1298.49 574.427C1293.99 587.793 1287.64 605.614 1282.09 623.797C1276.55 641.979 1271.93 660.523 1270.89 675.093C1270.66 678.705 1270.55 682.077 1270.78 685.087C1271.01 688.097 1271.35 690.746 1271.93 692.914C1272.51 695.081 1273.2 696.647 1273.66 697.73H1278.51C1278.51 697.49 1278.4 697.369 1278.28 697.128L1278.17 697.008C1278.17 697.008 1277.94 696.526 1277.47 695.683C1277.01 694.841 1276.44 693.516 1275.97 691.589C1275.51 689.783 1275.05 687.375 1274.93 684.605C1274.7 681.836 1274.7 678.705 1274.93 675.213C1275.4 668.229 1276.67 660.162 1278.51 651.492C1280.36 642.822 1282.79 633.791 1285.44 624.76C1290.76 606.698 1296.88 588.757 1301.38 575.27C1303.57 568.527 1305.31 562.868 1306.35 558.774C1306.81 556.727 1307.15 555.041 1307.39 553.837C1307.5 553.235 1307.5 552.633 1307.5 552.392C1307.5 552.151 1307.5 551.91 1307.5 551.91C1307.5 551.308 1306.81 550.586 1306.12 550.586Z" fill="#78C4FF"/>
<path d="M1599.8 699.657H1113.48C1112.68 699.657 1111.98 698.935 1111.98 698.092C1111.98 697.249 1112.68 696.526 1113.48 696.526H1599.8C1600.6 696.526 1601.3 697.249 1601.3 698.092C1601.3 699.055 1600.6 699.657 1599.8 699.657Z" fill="#4E73FF"/>
<path d="M1547.94 713.745H1468.72C1467.91 713.745 1467.22 713.023 1467.22 712.18C1467.22 711.337 1467.91 710.615 1468.72 710.615H1547.94C1548.75 710.615 1549.44 711.337 1549.44 712.18C1549.44 713.143 1548.75 713.745 1547.94 713.745Z" fill="#4E73FF"/>
<path d="M488.244 699.657H298.501C297.693 699.657 297 698.935 297 698.092C297 697.249 297.693 696.526 298.501 696.526H488.36C489.168 696.526 489.861 697.249 489.861 698.092C489.746 699.055 489.053 699.657 488.244 699.657Z" fill="#4E73FF"/>
<path d="M1259.69 688.699C1303.23 676.056 1336.03 721.331 1355.89 721.693C1375.75 722.054 1400.93 705.437 1412.48 704.233C1428.53 702.427 1450.24 712.421 1461.91 732.409H1234.05C1231.97 719.164 1234.05 696.165 1259.69 688.699Z" fill="#0068FF"/>
<path d="M422.187 680.873C462.26 665.219 545.063 715.431 560.077 715.672C575.09 715.913 610.544 699.777 619.321 699.055C677.526 694.479 698.891 717.237 711.71 732.289H403.478C403.478 732.409 385.924 695.081 422.187 680.873Z" fill="#0068FF"/>
<path d="M698.891 732.409C687.919 694.72 784.812 716.876 803.867 715.913C822.807 715.07 859.185 664.978 923.279 682.799C958.156 692.432 1011.97 720.007 1029.64 723.378C1057.94 728.918 1089.12 705.076 1126.77 732.409H698.891Z" fill="#0099FF"/>
<path d="M825.347 753H698.891C698.082 753 697.389 752.278 697.389 751.435C697.389 750.592 698.082 749.869 698.891 749.869H825.463C826.271 749.869 826.964 750.592 826.964 751.435C826.849 752.398 826.156 753 825.347 753Z" fill="#4E73FF"/>
<path d="M871.773 753H841.746C840.938 753 840.245 752.278 840.245 751.435C840.245 750.592 840.938 749.869 841.746 749.869H871.773C872.581 749.869 873.274 750.592 873.274 751.435C873.274 752.398 872.581 753 871.773 753Z" fill="#4E73FF"/>
<path d="M1560.99 733.975H368.024C367.215 733.975 366.522 733.252 366.522 732.409C366.522 731.566 367.215 730.844 368.024 730.844H1560.99C1561.8 730.844 1562.49 731.566 1562.49 732.409C1562.38 733.252 1561.8 733.975 1560.99 733.975Z" fill="#4E73FF"/>
<path opacity="0.3" d="M1089.7 587.552L1089.82 500.012C1089.82 496.881 1092.24 494.353 1095.24 494.353H1123.31C1141.78 494.353 1155.76 500.614 1162.11 518.676L1189.02 593.332H1095.24C1092.13 593.212 1089.7 590.683 1089.7 587.552Z" fill="url(#paint0_linear)"/>
<path d="M1211.42 620.305L1174 515.064C1166.5 493.992 1147.33 480.024 1125.73 480.024H1039.23V648.482H1215.35C1215.46 631.262 1211.42 620.305 1211.42 620.305ZM1095.13 593.212C1092.13 593.212 1089.7 590.683 1089.7 587.553L1089.82 500.012C1089.82 496.881 1092.24 494.353 1095.24 494.353H1123.31C1141.78 494.353 1155.76 500.614 1162.11 518.676L1189.02 593.332L1095.13 593.212Z" fill="#78C4FF"/>
<path d="M1019.95 450.041H712.177C701.437 450.041 692.66 459.192 692.66 470.391V648.602H1039.35V470.391C1039.35 459.192 1030.69 450.041 1019.95 450.041Z" fill="#78C4FF"/>
<path d="M1014.98 470.993H718.067C714.14 470.993 710.906 474.364 710.906 478.458V648.602H1022.14V478.458C1022.14 474.244 1018.91 470.993 1014.98 470.993Z" fill="url(#paint1_linear)"/>
<path d="M1215.46 648.602H692.66V686.893H1179.09C1199.18 686.893 1215.46 669.915 1215.46 648.963V648.602Z" fill="#0015FF"/>
<path d="M850.991 686.893C850.991 656.188 827.085 631.262 797.636 631.262C768.187 631.262 744.282 656.188 744.282 686.893H850.991Z" fill="#0000FF"/>
<path d="M1150.45 686.893C1150.45 656.188 1126.54 631.262 1097.09 631.262C1067.64 631.262 1043.74 656.188 1043.74 686.893H1150.45Z" fill="#0000FF"/>
<path d="M1042.47 480.024H1039.35V648.482H1042.47V480.024Z" fill="#38A4FF"/>
<path d="M1042.47 648.602H1039.35V686.893H1042.47V648.602Z" fill="#0007FF"/>
<path d="M797.521 730.844C820.801 730.844 839.673 711.167 839.673 686.893C839.673 662.62 820.801 642.943 797.521 642.943C774.241 642.943 755.368 662.62 755.368 686.893C755.368 711.167 774.241 730.844 797.521 730.844Z" fill="#0015FF"/>
<path d="M803.727 714.446C818.323 710.891 827.391 695.672 823.981 680.453C820.571 665.234 805.974 655.78 791.379 659.335C776.783 662.89 767.715 678.11 771.125 693.328C774.535 708.547 789.131 718.002 803.727 714.446Z" fill="#0098FF"/>
<path d="M797.521 701.222C805.111 701.222 811.264 694.807 811.264 686.893C811.264 678.979 805.111 672.564 797.521 672.564C789.931 672.564 783.778 678.979 783.778 686.893C783.778 694.807 789.931 701.222 797.521 701.222Z" fill="#006CFF"/>
<path d="M845.101 682.197C844.408 682.197 843.715 681.595 843.715 680.873C842.098 667.627 835.285 655.465 824.891 647.639C824.198 647.157 824.083 646.194 824.544 645.471C825.006 644.749 825.93 644.628 826.623 645.11C837.71 653.539 844.985 666.303 846.602 680.391C846.718 681.234 846.14 681.956 845.332 682.077C845.216 682.197 845.101 682.197 845.101 682.197Z" fill="#78C4FF"/>
<path d="M1097.09 730.844C1120.37 730.844 1139.24 711.167 1139.24 686.893C1139.24 662.62 1120.37 642.943 1097.09 642.943C1073.81 642.943 1054.94 662.62 1054.94 686.893C1054.94 711.167 1073.81 730.844 1097.09 730.844Z" fill="#0015FF"/>
<path d="M1122.51 696.907C1127.83 682.297 1120.79 665.953 1106.78 660.401C1092.77 654.848 1077.09 662.19 1071.77 676.799C1066.44 691.408 1073.48 707.752 1087.49 713.305C1101.51 718.857 1117.18 711.516 1122.51 696.907Z" fill="#0098FF"/>
<path d="M1097.09 701.222C1104.68 701.222 1110.83 694.807 1110.83 686.893C1110.83 678.979 1104.68 672.564 1097.09 672.564C1089.5 672.564 1083.35 678.979 1083.35 686.893C1083.35 694.807 1089.5 701.222 1097.09 701.222Z" fill="#006CFF"/>
<path d="M1131.85 654.382C1131.51 654.382 1131.04 654.261 1130.81 653.9C1121.92 644.026 1110.03 638.608 1097.09 638.608C1096.28 638.608 1095.59 637.885 1095.59 637.042C1095.59 636.199 1096.28 635.477 1097.09 635.477C1110.6 635.477 1123.65 641.377 1133.01 651.733C1133.58 652.335 1133.47 653.298 1132.89 653.9C1132.66 654.261 1132.31 654.382 1131.85 654.382Z" fill="#78C4FF"/>
<path d="M1117.65 733.373C1117.07 733.373 1116.61 733.011 1116.38 732.53C1116.03 731.807 1116.38 730.844 1117.07 730.483C1133.12 722.536 1143.4 705.437 1143.4 686.893C1143.4 686.05 1144.09 685.328 1144.9 685.328C1145.71 685.328 1146.4 686.05 1146.4 686.893C1146.4 706.521 1135.43 724.703 1118.34 733.132C1117.99 733.252 1117.88 733.373 1117.65 733.373Z" fill="#78C4FF"/>
<path d="M1097.09 726.87C1075.96 726.87 1058.75 708.929 1058.75 686.893C1058.75 664.858 1075.96 646.916 1097.09 646.916C1118.22 646.916 1135.43 664.858 1135.43 686.893C1135.43 708.929 1118.22 726.87 1097.09 726.87ZM1097.09 649.926C1077.57 649.926 1061.64 666.543 1061.64 686.893C1061.64 707.243 1077.57 723.86 1097.09 723.86C1116.61 723.86 1132.55 707.243 1132.55 686.893C1132.55 666.543 1116.61 649.926 1097.09 649.926Z" fill="#0025FF"/>
<path d="M1097.09 721.693C1078.61 721.693 1063.72 706.039 1063.72 686.893C1063.72 667.627 1078.73 652.094 1097.09 652.094C1115.57 652.094 1130.47 667.748 1130.47 686.893C1130.47 706.159 1115.57 721.693 1097.09 721.693ZM1097.09 654.984C1080.23 654.984 1066.6 669.313 1066.6 686.773C1066.6 704.233 1080.35 718.562 1097.09 718.562C1113.95 718.562 1127.58 704.233 1127.58 686.773C1127.58 669.313 1113.95 654.984 1097.09 654.984Z" fill="#0025FF"/>
<path opacity="0.24" d="M1116.72 667.386C1106.45 656.068 1089.24 655.586 1078.38 666.423C1067.53 677.14 1067.06 695.081 1077.46 706.4L1116.72 667.386Z" fill="#78C4FF"/>
<path d="M797.521 726.87C776.387 726.87 759.179 708.929 759.179 686.893C759.179 664.858 776.387 646.916 797.521 646.916C818.655 646.916 835.862 664.858 835.862 686.893C835.862 708.929 818.655 726.87 797.521 726.87ZM797.521 649.926C778.004 649.926 762.067 666.543 762.067 686.893C762.067 707.243 778.004 723.86 797.521 723.86C817.038 723.86 832.975 707.243 832.975 686.893C832.975 666.543 817.153 649.926 797.521 649.926Z" fill="#0025FF"/>
<path d="M797.521 721.693C779.043 721.693 764.145 706.039 764.145 686.893C764.145 667.627 779.159 652.094 797.521 652.094C815.999 652.094 830.896 667.748 830.896 686.893C831.012 706.159 815.999 721.693 797.521 721.693ZM797.521 654.984C780.66 654.984 767.033 669.313 767.033 686.773C767.033 704.233 780.775 718.562 797.521 718.562C814.382 718.562 828.009 704.233 828.009 686.773C828.009 669.313 814.382 654.984 797.521 654.984Z" fill="#0025FF"/>
<path opacity="0.24" d="M817.153 667.386C806.875 656.068 789.668 655.586 778.812 666.423C767.956 677.14 767.494 695.081 777.888 706.4L817.153 667.386Z" fill="#78C4FF"/>
<path d="M817.269 733.854C816.691 733.854 816.23 733.493 815.999 733.011C815.652 732.289 815.999 731.326 816.691 730.964C829.164 725.064 838.518 713.866 842.214 700.259C842.445 699.416 843.253 698.935 844.061 699.175C844.87 699.416 845.332 700.259 845.101 701.102C841.059 715.672 831.243 727.593 817.962 733.734C817.615 733.854 817.5 733.854 817.269 733.854Z" fill="#78C4FF"/>
<path d="M1165 515.305L1192.71 593.453H1201.95L1174.24 515.305C1172.5 510.488 1170.19 506.153 1167.42 502.18H1158.18C1160.84 505.912 1163.38 510.608 1165 515.305Z" fill="#38A4FF"/>
<path d="M1174.47 584.663H1165.8V547.816H1174.47C1177.12 547.816 1179.32 550.104 1179.32 552.874V579.485C1179.32 582.375 1177.12 584.663 1174.47 584.663Z" fill="#0015FF"/>
<path d="M1165.8 547.816H1158.76V584.663H1165.8V547.816Z" fill="#78C4FF"/>
<path d="M1190.52 595.259L1176.55 555.884H1172.5L1187.63 597.908H1188.79C1190.17 597.908 1190.98 596.583 1190.52 595.259Z" fill="#0015FF"/>
<path d="M998.582 730.844H1097.44C1097.44 730.844 1088.78 723.86 1084.27 723.86C1079.77 723.98 1079.65 727.713 1079.65 727.713C1079.65 727.713 1066.49 717.839 1054.36 720.85C1047.66 722.535 1050.43 728.556 1050.43 728.556C1050.43 728.556 1033.23 716.996 1023.41 720.127C1015.44 722.656 1015.79 728.676 1015.79 728.676C1015.79 728.676 1008.05 723.017 1001.47 724.221C995.117 725.425 998.582 730.844 998.582 730.844Z" fill="#78C4FF"/>
<path d="M1045.82 710.976C1045.82 709.772 1044.89 708.808 1043.74 708.808C1042.58 708.808 1041.66 709.772 1041.66 710.976C1041.66 712.18 1042.58 713.143 1043.74 713.143C1044.89 713.143 1045.82 712.18 1045.82 710.976Z" fill="#4E73FF"/>
<path d="M979.757 710.976C981.033 710.976 982.067 709.898 982.067 708.568C982.067 707.238 981.033 706.159 979.757 706.159C978.482 706.159 977.448 707.238 977.448 708.568C977.448 709.898 978.482 710.976 979.757 710.976Z" fill="#4E73FF"/>
<path d="M1025.95 702.908C1025.95 701.343 1024.8 700.139 1023.3 700.139C1021.79 700.139 1020.64 701.343 1020.64 702.908C1020.64 704.474 1021.79 705.678 1023.3 705.678C1024.8 705.678 1025.95 704.353 1025.95 702.908Z" fill="#4E73FF"/>
<path d="M948.461 663.172C949.545 663.172 950.424 662.255 950.424 661.125C950.424 659.994 949.545 659.078 948.461 659.078C947.376 659.078 946.497 659.994 946.497 661.125C946.497 662.255 947.376 663.172 948.461 663.172Z" fill="#4E73FF"/>
<path d="M1012.9 668.229C1012.9 667.025 1011.98 666.182 1010.94 666.182C1009.78 666.182 1008.98 667.145 1008.98 668.229C1008.98 669.433 1009.9 670.276 1010.94 670.276C1011.98 670.276 1012.9 669.313 1012.9 668.229Z" fill="#4E73FF"/>
<path d="M990.729 682.077C990.729 681.113 989.92 680.271 988.996 680.271C988.072 680.271 987.264 681.113 987.264 682.077C987.264 683.04 988.072 683.883 988.996 683.883C989.92 684.003 990.729 683.16 990.729 682.077Z" fill="#4E73FF"/>
<path d="M1054.94 701.824C1055.58 701.824 1056.09 701.285 1056.09 700.62C1056.09 699.955 1055.58 699.416 1054.94 699.416C1054.3 699.416 1053.78 699.955 1053.78 700.62C1053.78 701.285 1054.3 701.824 1054.94 701.824Z" fill="#4E73FF"/>
<path d="M1058.63 726.389C1058.63 725.666 1058.17 725.185 1057.48 725.185C1056.79 725.185 1056.32 725.666 1056.32 726.389C1056.32 727.111 1056.79 727.593 1057.48 727.593C1058.17 727.593 1058.63 727.111 1058.63 726.389Z" fill="#4E73FF"/>
<path d="M1031.96 674.732C1031.96 674.129 1031.49 673.768 1031.03 673.768C1030.57 673.768 1030.11 674.25 1030.11 674.732C1030.11 675.334 1030.57 675.695 1031.03 675.695C1031.49 675.695 1031.96 675.334 1031.96 674.732Z" fill="#4E73FF"/>
<path d="M1022.72 682.799C1022.72 682.318 1022.26 681.836 1021.79 681.836C1021.33 681.836 1020.87 682.318 1020.87 682.799C1020.87 683.281 1021.33 683.762 1021.79 683.762C1022.37 683.762 1022.72 683.401 1022.72 682.799Z" fill="#4E73FF"/>
<path d="M791.4 730.844H730.539C730.539 730.844 718.182 721.693 723.263 718.803C730.077 715.07 746.245 726.87 746.245 726.87C746.245 726.87 745.783 722.295 749.363 720.85C754.214 718.923 763.799 726.268 763.799 726.268C763.799 726.268 763.452 722.897 767.264 721.452C777.542 717.598 791.4 730.844 791.4 730.844Z" fill="#78C4FF"/>
<path d="M648.429 730.844H686.308C686.308 730.844 659.977 713.625 651.662 715.07C641.038 716.876 648.429 730.844 648.429 730.844Z" fill="#78C4FF"/>
<path d="M713.909 727.954C715.312 727.954 716.45 726.768 716.45 725.305C716.45 723.842 715.312 722.656 713.909 722.656C712.506 722.656 711.368 723.842 711.368 725.305C711.368 726.768 712.506 727.954 713.909 727.954Z" fill="#4E73FF"/>
<path d="M738.161 694.72C738.161 693.034 736.775 691.589 735.158 691.589C733.542 691.589 732.156 693.034 732.156 694.72C732.156 696.406 733.542 697.851 735.158 697.851C736.775 697.851 738.161 696.406 738.161 694.72Z" fill="#4E73FF"/>
<path d="M758.256 713.143C758.256 711.458 756.985 710.133 755.368 710.133C753.752 710.133 752.481 711.458 752.481 713.143C752.481 714.829 753.752 716.154 755.368 716.154C756.985 716.154 758.256 714.829 758.256 713.143Z" fill="#4E73FF"/>
<path d="M618.864 706.641C618.864 705.076 617.709 703.872 616.208 703.872C614.707 703.872 613.552 705.076 613.552 706.641C613.552 708.206 614.707 709.411 616.208 709.411C617.709 709.411 618.864 708.206 618.864 706.641Z" fill="#4E73FF"/>
<path d="M731.232 660.523H664.943C664.135 660.523 663.442 659.8 663.442 658.957C663.442 658.115 664.135 657.392 664.943 657.392H731.232C732.04 657.392 732.733 658.115 732.733 658.957C732.618 659.921 732.04 660.523 731.232 660.523Z" fill="#78C4FF"/>
<path d="M731.232 509.284H664.943C664.135 509.284 663.442 508.562 663.442 507.719C663.442 506.876 664.135 506.153 664.943 506.153H731.232C732.04 506.153 732.733 506.876 732.733 507.719C732.618 508.682 732.04 509.284 731.232 509.284Z" fill="#78C4FF"/>
<path d="M1000.66 676.297H896.261C895.453 676.297 894.76 675.574 894.76 674.731C894.76 673.889 895.453 673.166 896.261 673.166H1000.66C1001.47 673.166 1002.16 673.889 1002.16 674.731C1002.16 675.574 1001.47 676.297 1000.66 676.297Z" fill="#78C4FF"/>
<path d="M1030.92 660.523H967.747C966.938 660.523 966.246 659.8 966.246 658.957C966.246 658.115 966.938 657.392 967.747 657.392H1030.92C1031.73 657.392 1032.42 658.115 1032.42 658.957C1032.42 659.921 1031.73 660.523 1030.92 660.523Z" fill="#78C4FF"/>
<path d="M1089.58 603.567V606.578H1115.92V603.567C1115.92 601.882 1114.53 600.437 1112.91 600.437H1092.59C1090.97 600.437 1089.58 601.882 1089.58 603.567Z" fill="#38A4FF"/>
<path d="M1077.69 494.353H1058.63C1055.52 494.353 1052.98 497.002 1052.98 500.253V587.432C1052.98 590.683 1055.52 593.332 1058.63 593.332H1077.69C1080.81 593.332 1083.35 590.683 1083.35 587.432V500.253C1083.35 497.002 1080.81 494.353 1077.69 494.353Z" fill="#62B8FF"/>
<path d="M1191.56 643.785H1215.35C1214.77 629.215 1211.42 620.305 1211.42 620.305L1207.84 610.31H1191.44C1188.9 610.31 1186.94 612.358 1186.94 615.007V639.21C1187.05 641.618 1189.02 643.785 1191.56 643.785Z" fill="#0084FF"/>
<path opacity="0.24" d="M1211.42 620.305L1207.84 610.31H1191.44C1188.9 610.31 1186.94 612.358 1186.94 615.007V639.21C1186.94 641.859 1188.9 643.906 1191.44 643.906H1191.56L1212.23 623.315C1211.88 621.268 1211.42 620.305 1211.42 620.305Z" fill="#78C4FF"/>
</g>
<g style="mix-blend-mode:luminosity" opacity="0.3">
<g clip-path="url(#clip0)">
<path d="M255.922 707.034C271.4 705.79 285.277 704.723 299.688 703.657C299.688 714.675 299.688 725.16 299.688 735.822C305.381 735.822 310.541 735.822 316.412 735.822C316.412 725.16 316.412 714.853 316.412 703.657C331 704.723 344.7 705.79 360.178 707.034C349.681 690.684 340.074 675.579 329.755 659.585C336.872 660.474 342.743 661.185 349.859 662.251C340.964 645.902 332.602 630.619 323.528 613.737C330.111 614.448 335.448 614.981 342.387 615.869C334.559 600.409 327.264 586.37 319.258 570.554C324.418 571.442 328.154 571.975 332.957 572.864C326.731 561.135 321.037 550.117 314.633 538.033C319.258 539.455 322.639 540.521 327.086 541.943C320.682 523.106 314.633 505.69 308.05 486.32C301.467 505.513 295.418 523.106 289.013 541.943C293.461 540.521 297.019 539.455 301.467 538.033C295.062 550.117 289.369 560.957 282.964 572.864C287.768 571.975 291.504 571.442 296.664 570.554C288.835 585.837 281.541 600.053 273.535 615.692C280.118 614.981 285.455 614.448 292.394 613.737C283.32 630.264 274.958 645.724 265.885 662.251C273.001 661.363 278.872 660.474 286.167 659.408C276.204 675.402 266.597 690.507 255.922 707.034Z" fill="#62B8FF"/>
<path d="M233.505 690.151C208.953 688.197 186.892 686.597 163.942 684.82C163.942 702.413 163.942 718.94 163.942 736C154.868 736 146.684 736 137.433 736C137.433 718.94 137.433 702.591 137.433 684.82C114.304 686.597 92.4211 688.197 68.0473 690.151C84.593 664.206 99.8934 640.215 116.261 614.625C105.053 616.047 95.6235 617.291 84.2372 618.713C98.2922 592.767 111.636 568.421 126.224 541.765C115.905 542.831 107.366 543.897 96.1573 545.141C108.611 520.618 120.175 498.227 132.985 473.17C124.623 474.591 118.752 475.48 111.28 476.902C121.243 458.064 130.316 440.827 140.457 421.457C132.985 423.767 127.648 425.544 120.531 427.676C130.672 397.466 140.101 369.566 150.598 339C161.095 369.388 170.702 397.466 181.021 427.321C174.083 425.188 168.389 423.411 161.095 421.101C171.236 440.116 180.309 457.531 190.45 476.546C182.8 475.302 176.751 474.236 168.745 472.814C181.199 497.16 192.763 519.729 205.395 544.608C194.898 543.542 186.358 542.654 175.328 541.587C189.739 567.888 203.082 592.412 217.493 618.713C206.284 617.113 196.855 615.869 185.113 614.27C201.303 639.682 216.603 663.673 233.505 690.151Z" fill="#62B8FF"/>
<path d="M6.4899 719.118C-2.58358 718.407 -10.5896 717.874 -18.9514 717.163C-18.9514 723.561 -18.9514 729.603 -18.9514 736C-22.3318 736 -25.1783 736 -28.5587 736C-28.5587 729.78 -28.5587 723.738 -28.5587 717.341C-36.9205 718.052 -45.1044 718.585 -54 719.296C-47.951 709.699 -42.2578 700.992 -36.3868 691.573C-40.4787 692.106 -43.859 692.462 -48.1289 692.995C-42.9695 683.576 -38.1659 674.513 -32.8285 664.739C-36.5647 665.095 -39.7671 665.45 -43.859 665.983C-39.2333 656.92 -35.1414 648.745 -30.3378 639.682C-33.3623 640.215 -35.4972 640.571 -38.3438 641.104C-34.7856 634.173 -31.4052 627.954 -27.6691 620.845C-30.3378 621.734 -32.2948 622.267 -34.9635 623.155C-31.2273 612.137 -27.6691 602.008 -23.933 590.812C-20.0189 602.008 -16.6386 612.137 -12.9025 623.155C-15.3932 622.445 -17.5281 621.734 -20.1968 620.845C-16.4607 627.776 -13.0804 634.173 -9.52213 641.104C-12.3687 640.571 -14.5037 640.215 -17.5281 639.682C-12.9025 648.568 -8.81049 656.92 -4.00687 665.983C-7.92093 665.628 -10.9454 665.272 -15.0374 664.917C-9.70004 674.513 -4.89643 683.576 0.44091 693.172C-3.65105 692.639 -7.20928 692.106 -11.4792 691.573C-5.25226 700.814 0.44091 709.522 6.4899 719.118Z" fill="#62B8FF"/>
<path d="M62.532 719.118C53.4585 718.407 45.4525 717.874 37.0907 717.163C37.0907 723.561 37.0907 729.603 37.0907 736C33.7104 736 30.8638 736 27.4835 736C27.4835 729.78 27.4835 723.738 27.4835 717.341C19.1216 718.052 10.9377 718.585 2.04211 719.296C8.0911 709.699 13.7843 700.992 19.6554 691.573C15.5634 692.106 12.1831 692.462 7.91319 692.995C13.0726 683.576 17.8762 674.513 23.2136 664.739C19.4774 665.095 16.275 665.45 12.1831 665.983C16.8088 656.92 20.9007 648.745 25.7043 639.682C22.6798 640.215 20.5449 640.571 17.6983 641.104C21.2566 634.173 24.6369 627.954 28.373 620.845C25.7043 621.734 23.7473 622.267 21.0786 623.155C24.8148 612.137 28.373 602.008 32.1092 590.812C36.0232 602.008 39.4035 612.137 43.1397 623.155C40.6489 622.445 38.514 621.734 35.8453 620.845C39.5814 627.776 42.9618 634.173 46.52 641.104C43.6734 640.571 41.5385 640.215 38.514 639.682C43.1397 648.568 47.2316 656.92 52.0352 665.983C48.1212 665.628 45.0967 665.272 41.0047 664.917C46.3421 674.513 51.1457 683.576 56.483 693.172C52.3911 692.639 48.8328 692.106 44.563 691.573C50.7899 700.814 56.3051 709.522 62.532 719.118Z" fill="#62B8FF"/>
<path d="M195.432 661.185C204.505 660.474 212.511 659.941 220.873 659.23C220.873 665.628 220.873 671.67 220.873 678.067C224.254 678.067 227.1 678.067 230.48 678.067C230.48 671.847 230.48 665.805 230.48 659.408C238.842 660.119 247.026 660.652 255.922 661.363C249.873 651.766 244.18 643.059 238.309 633.64C242.401 634.173 245.781 634.529 250.051 635.062C244.891 625.643 240.088 616.58 234.75 606.806C238.486 607.162 241.689 607.517 245.781 608.05C241.155 598.987 237.063 590.812 232.26 581.749C235.284 582.282 237.419 582.638 240.266 583.171C236.707 576.24 233.327 570.021 229.591 562.912C232.26 563.801 234.217 564.334 236.885 565.222C233.149 554.205 229.591 544.075 225.855 532.88C221.941 544.075 218.56 554.205 214.824 565.222C217.315 564.512 219.45 563.801 222.119 562.912C218.382 569.843 215.002 576.24 211.444 583.171C214.291 582.638 216.425 582.282 219.45 581.749C214.824 590.635 210.732 598.987 205.929 608.05C209.843 607.695 212.867 607.339 216.959 606.984C211.622 616.58 206.818 625.643 201.481 635.239C205.573 634.706 209.131 634.173 213.401 633.64C207.174 642.703 201.659 651.411 195.432 661.185Z" fill="#62B8FF"/>
</g>
</g>
<g style="mix-blend-mode:luminosity" opacity="0.5" clip-path="url(#clip1)">
<path d="M1693.76 345.252C1710.58 289.404 1781.02 255.175 1813 317.028C1831.78 353.359 1809.25 389.84 1836.88 409.207C1864.51 428.724 1920.98 445.088 1911.52 513.396C1900.86 590.563 1817.06 628.996 1751.43 599.42C1655.47 556.033 1681.3 385.787 1693.76 345.252Z" fill="#0099FF"/>
<path d="M1762.09 527.809C1703.08 534.115 1688.06 469.409 1681 438.032C1679.8 500.336 1693.16 572.998 1751.43 599.271C1805.19 623.592 1871.27 602.123 1899.05 551.079C1892.45 487.274 1821.11 521.504 1762.09 527.809Z" fill="#0068FF"/>
<path d="M1765.25 460.702C1764.5 460.702 1763.75 460.251 1763.45 459.351C1763.15 458.3 1763.6 457.249 1764.65 456.948C1777.11 452.895 1786.72 429.325 1788.23 418.215C1788.38 417.164 1789.28 416.414 1790.33 416.564C1791.38 416.714 1792.13 417.615 1791.98 418.666C1790.33 430.826 1780.12 455.898 1765.85 460.552C1765.7 460.702 1765.4 460.702 1765.25 460.702Z" fill="#78C4FF"/>
<path d="M1773.66 554.532C1772.76 554.532 1771.86 553.782 1771.86 552.881C1770.5 542.972 1761.04 534.565 1750.08 524.807C1735.06 511.595 1716.44 495.081 1711.49 467.458C1711.34 466.407 1711.94 465.506 1712.99 465.206C1714.04 465.055 1714.94 465.656 1715.24 466.707C1720.05 492.979 1737.32 508.293 1752.63 521.804C1764.2 532.013 1774.11 540.871 1775.61 552.13C1775.76 553.181 1775.01 554.082 1773.96 554.232C1773.81 554.382 1773.66 554.532 1773.66 554.532Z" fill="#78C4FF"/>
<path d="M1828.92 508.142C1828.77 508.142 1828.62 508.142 1828.47 508.142C1812.4 503.789 1815.11 453.646 1815.86 449.142C1816.01 448.091 1817.06 447.49 1817.96 447.641C1819.01 447.791 1819.61 448.842 1819.46 449.742C1817.81 460.101 1818.11 501.537 1829.37 504.539C1830.42 504.84 1831.02 505.89 1830.72 506.791C1830.57 507.692 1829.82 508.142 1828.92 508.142Z" fill="#78C4FF"/>
<path d="M1826.52 554.532C1825.62 554.532 1824.72 553.782 1824.72 552.881C1824.57 551.83 1825.47 550.929 1826.37 550.779C1841.09 549.578 1854.3 520.753 1854.3 509.944C1854.3 508.893 1855.2 507.992 1856.25 507.992C1857.31 507.992 1858.21 508.893 1858.21 509.944C1858.21 521.804 1844.24 553.031 1826.82 554.532C1826.67 554.532 1826.52 554.532 1826.52 554.532Z" fill="#78C4FF"/>
<path d="M1779.82 613.082C1779.82 623.892 1779.82 634.551 1779.36 644.91C1779.06 655.269 1778.31 665.177 1777.41 674.635C1776.81 679.289 1776.36 683.943 1775.76 688.447C1775.46 690.699 1775.16 692.801 1774.86 694.903C1774.71 695.954 1774.56 697.005 1774.41 698.055C1774.26 699.106 1773.96 700.157 1773.81 701.208C1773.06 705.262 1772.31 709.165 1771.41 712.918C1770.95 714.72 1770.5 716.521 1770.2 718.323C1769.75 720.124 1769.3 721.776 1768.85 723.427C1768.4 725.079 1767.95 726.58 1767.5 728.231C1767.05 729.733 1766.45 731.234 1766 732.585C1764.95 735.438 1764.2 737.99 1763.15 740.242C1762.24 742.494 1761.34 744.595 1760.59 746.397C1759.84 747.898 1759.24 749.099 1758.64 750.15H1748.13L1748.28 749.7C1748.28 749.7 1748.88 748.499 1750.08 746.397C1750.68 745.346 1751.43 743.995 1752.18 742.494C1752.93 740.842 1753.68 739.041 1754.74 736.939C1755.79 734.837 1756.54 732.435 1757.44 729.733C1757.89 728.381 1758.49 727.03 1758.94 725.679C1759.39 724.178 1759.84 722.677 1760.29 721.175C1760.74 719.674 1761.34 718.023 1761.64 716.371C1762.09 714.72 1762.55 712.918 1762.85 711.117C1763.75 707.664 1764.5 703.76 1765.25 699.857C1765.4 698.806 1765.7 697.905 1765.85 696.854C1766 695.803 1766.15 694.753 1766.3 693.702C1766.6 691.6 1767.05 689.498 1767.35 687.396C1767.95 683.043 1768.55 678.539 1769.15 674.035C1770.2 664.727 1771.11 654.968 1771.56 644.91C1772.16 634.701 1772.46 624.192 1772.61 613.533C1772.61 611.281 1772.61 609.029 1772.61 606.777C1772.61 598.22 1772.46 589.662 1772.31 580.955C1772.01 570.596 1771.56 560.387 1770.95 550.178C1770.95 549.578 1770.95 548.977 1770.8 548.527C1770.65 545.825 1770.5 543.273 1770.35 540.72C1770.05 536.217 1769.75 531.713 1769.45 527.209C1769.15 523.756 1768.85 520.453 1768.7 517C1767.05 496.582 1765.1 477.666 1763.15 461.302C1761.19 445.088 1759.39 431.577 1758.04 422.119C1756.69 412.66 1755.79 407.256 1755.79 407.256C1755.64 406.205 1756.39 405.304 1757.44 405.154C1758.49 405.004 1759.39 405.755 1759.54 406.655C1759.54 406.655 1760.44 412.06 1761.94 421.518C1763.3 430.075 1765.1 441.936 1767.05 456.198C1767.2 457.549 1767.35 458.75 1767.5 460.101C1767.5 460.251 1767.5 460.552 1767.65 460.702C1769.9 476.916 1772.16 495.982 1774.11 516.399C1774.41 519.552 1774.71 522.855 1775.01 526.158C1775.61 533.364 1776.21 540.57 1776.81 547.927C1777.56 558.736 1778.31 569.695 1778.76 580.655C1779.21 589.813 1779.36 598.97 1779.51 608.128C1779.82 609.63 1779.82 611.431 1779.82 613.082Z" fill="#78C4FF"/>
<path d="M1841.84 442.086C1841.84 442.086 1841.84 442.386 1841.69 442.986C1841.54 443.587 1841.39 444.488 1841.39 445.539C1841.09 447.791 1840.79 451.244 1840.34 455.447C1839.43 464.455 1838.23 477.066 1836.73 491.328C1835.98 498.534 1835.08 506.341 1834.18 514.598C1832.98 525.557 1831.48 537.418 1829.82 549.728C1829.67 551.079 1829.52 552.43 1829.22 553.782C1827.12 568.794 1824.87 584.558 1822.16 600.171C1821.71 602.423 1821.41 604.675 1820.96 606.927C1820.51 609.63 1820.06 612.332 1819.61 615.034C1818.86 619.388 1817.96 623.591 1817.21 627.795C1817.06 628.396 1817.06 628.996 1816.91 629.597C1815.11 639.205 1813 648.813 1810.9 657.821C1809.85 662.325 1808.8 666.829 1807.75 671.332C1807.45 672.534 1807.15 673.584 1806.85 674.785C1806.1 677.938 1805.19 681.091 1804.44 684.244C1803.24 688.447 1802.19 692.501 1800.99 696.254C1799.79 700.157 1798.59 703.91 1797.54 707.514C1796.33 711.117 1795.13 714.57 1794.08 717.722C1792.88 721.025 1791.68 724.028 1790.63 726.88C1789.43 729.733 1788.38 732.435 1787.32 734.837C1786.27 737.389 1785.22 739.491 1784.32 741.593C1782.67 745.196 1781.17 747.898 1780.12 750H1769.45C1769.45 749.85 1769.6 749.85 1769.6 749.7L1769.75 749.4C1769.75 749.4 1770.35 748.349 1771.41 746.397C1772.46 744.445 1774.26 741.593 1776.06 737.689C1776.96 735.738 1778.16 733.636 1779.06 731.384C1780.12 728.982 1781.17 726.43 1782.37 723.727C1783.42 720.875 1784.62 718.023 1785.82 714.87C1787.02 711.717 1788.23 708.414 1789.43 704.961C1790.63 701.508 1791.83 697.755 1793.03 694.002C1794.23 690.249 1795.43 686.195 1796.63 682.142C1797.84 678.088 1799.04 673.885 1800.24 669.531C1801.14 665.778 1802.19 662.024 1803.09 658.271C1803.24 657.671 1803.39 657.07 1803.54 656.32C1805.19 649.714 1806.7 643.108 1808.2 636.202C1808.8 633.65 1809.4 630.948 1809.85 628.396C1810.9 623.591 1811.95 618.787 1812.85 613.983C1813.3 612.182 1813.6 610.23 1813.91 608.428C1814.51 605.426 1815.11 602.423 1815.71 599.421C1821.11 570.446 1825.47 541.171 1828.77 515.949C1829.07 513.247 1829.52 510.695 1829.82 508.142C1829.97 507.242 1830.12 506.191 1830.27 505.29C1830.87 500.486 1831.48 495.832 1832.08 491.328C1833.88 476.465 1835.23 464.155 1836.28 455.447C1836.73 451.093 1837.18 447.791 1837.48 445.389C1837.63 444.187 1837.78 443.287 1837.93 442.686C1838.08 442.086 1838.08 441.785 1838.08 441.785C1838.23 440.735 1839.28 440.134 1840.19 440.284C1841.24 440.134 1841.99 441.035 1841.84 442.086Z" fill="#78C4FF"/>
<path d="M1804.74 642.358C1810.75 627.345 1829.97 616.986 1845.74 631.999C1852.95 638.905 1845.14 652.266 1850.85 656.92C1856.55 661.574 1866.32 663.226 1868.87 674.635C1874.58 700.307 1842.14 710.066 1821.71 694.602C1801.29 678.989 1800.99 651.816 1804.74 642.358Z" fill="#0068FF"/>
<path d="M1835.68 666.528C1835.53 667.729 1835.53 669.081 1835.38 670.432C1835.38 671.783 1835.23 673.284 1834.93 674.785C1834.78 676.287 1834.48 677.788 1834.18 679.439C1833.88 681.091 1833.58 682.742 1833.13 684.394C1832.98 685.294 1832.68 686.045 1832.53 686.946C1832.23 687.847 1832.08 688.597 1831.78 689.498C1831.33 691.3 1830.87 693.101 1830.27 694.903C1829.82 696.104 1829.37 697.455 1828.92 698.806C1828.17 701.208 1827.27 703.46 1826.22 705.862C1824.87 709.615 1823.07 713.218 1821.26 716.822C1820.36 718.623 1819.31 720.425 1818.41 722.076C1817.36 723.878 1816.46 725.529 1815.41 727.331C1814.36 728.982 1813.3 730.633 1812.25 732.285C1811.2 733.936 1810 735.438 1808.95 736.939C1806.85 740.092 1804.44 742.794 1802.19 745.496C1801.59 746.097 1801.14 746.847 1800.54 747.448C1799.94 748.048 1799.34 748.649 1798.89 749.249C1798.74 749.399 1798.44 749.7 1798.29 749.85H1790.78C1791.08 749.55 1791.53 749.249 1791.83 748.799C1792.88 747.748 1793.93 746.697 1794.98 745.496C1795.58 744.896 1796.03 744.295 1796.63 743.845C1797.24 743.244 1797.69 742.644 1798.29 742.043C1800.39 739.491 1802.79 736.789 1804.89 733.936C1805.95 732.435 1807.15 730.934 1808.2 729.432C1809.25 727.931 1810.3 726.28 1811.35 724.628C1812.4 723.127 1813.3 721.325 1814.36 719.674C1815.26 718.023 1816.31 716.371 1817.21 714.57C1819.01 711.117 1820.66 707.664 1822.16 704.061C1823.22 701.658 1824.12 699.106 1825.02 696.704C1825.32 695.653 1825.77 694.602 1826.22 693.552C1826.82 691.75 1827.27 690.099 1827.72 688.447C1828.02 687.546 1828.17 686.796 1828.47 685.895C1828.62 684.994 1828.92 684.244 1829.07 683.343C1829.37 681.691 1829.82 680.19 1830.12 678.539C1830.42 677.037 1830.57 675.536 1830.87 674.035C1831.18 672.533 1831.33 671.182 1831.33 669.831C1831.48 668.48 1831.48 667.279 1831.63 666.078V660.073C1831.33 656.62 1831.03 654.668 1831.03 654.668C1830.87 653.617 1831.63 652.716 1832.68 652.566C1833.73 652.416 1834.63 653.167 1834.78 654.218C1834.78 654.218 1835.08 656.169 1835.38 659.622C1835.53 661.874 1835.68 664.126 1835.68 666.528Z" fill="#78C4FF"/>
<path d="M1902.81 738.74C1908.82 738.29 1914.22 737.84 1919.93 737.389C1919.93 741.743 1919.93 745.796 1919.93 750C1922.18 750 1924.13 750 1926.39 750C1926.39 745.796 1926.39 741.743 1926.39 737.389C1932.09 737.84 1937.5 738.29 1943.36 738.74C1939.3 732.435 1935.55 726.43 1931.49 720.124C1934.2 720.425 1936.6 720.725 1939.3 721.175C1935.85 714.87 1932.54 708.865 1929.09 702.259C1931.64 702.559 1933.74 702.709 1936.45 703.01C1933.44 697.005 1930.59 691.45 1927.44 685.294C1929.54 685.595 1930.89 685.895 1932.84 686.195C1930.44 681.541 1928.19 677.338 1925.64 672.533C1927.44 673.134 1928.79 673.584 1930.44 674.035C1927.89 666.678 1925.64 659.923 1922.93 652.266C1920.38 659.773 1917.98 666.678 1915.42 673.885C1917.08 673.284 1918.58 672.984 1920.38 672.383C1917.98 677.037 1915.72 681.391 1913.17 686.045C1915.12 685.745 1916.47 685.445 1918.58 685.144C1915.57 691.15 1912.72 696.704 1909.57 702.709C1912.12 702.409 1914.22 702.259 1916.93 701.959C1913.32 708.414 1910.17 714.419 1906.56 720.875C1909.27 720.425 1911.67 720.124 1914.52 719.824C1910.62 726.43 1906.86 732.285 1902.81 738.74Z" fill="#62B8FF"/>
</g>
<g style="mix-blend-mode:luminosity">
<g opacity="0.3" clip-path="url(#clip2)">
<path d="M1456 169H1786.65C1786.65 169 1801.32 123 1758.69 123C1729.17 123 1690.45 147.272 1675.78 145.902C1660.92 144.532 1663.27 124.957 1649 124.566C1634.72 123.979 1588.97 156.668 1583.88 154.711C1578.6 152.753 1575.08 135.919 1553.57 132.787C1525.81 128.872 1518.96 155.298 1456 169Z" fill="#62B8FF"/>
</g>
</g>
<g style="mix-blend-mode:luminosity" opacity="0.3">
<g clip-path="url(#clip3)">
<path d="M280.714 146H166C178.511 144.238 181.154 134.723 187.322 133.489C191.727 132.608 205.295 141.066 213.225 139.48C221.683 137.718 237.718 110.229 256.044 106.529C274.546 102.652 287.762 125.912 280.714 146Z" fill="#62B8FF"/>
</g>
</g>
<defs>
<linearGradient id="paint0_linear" x1="1089.69" y1="543.773" x2="1188.96" y2="543.773" gradientUnits="userSpaceOnUse">
<stop stop-color="#62B8FF"/>
<stop offset="1" stop-color="#78C4FF"/>
</linearGradient>
<linearGradient id="paint1_linear" x1="746.392" y1="436.698" x2="883.73" y2="568.416" gradientUnits="userSpaceOnUse">
<stop stop-color="#62B8FF"/>
<stop offset="1" stop-color="#78C4FF"/>
</linearGradient>
<clipPath id="clip0">
<rect width="414" height="397" fill="white" transform="translate(-54 339)"/>
</clipPath>
<clipPath id="clip1">
<rect width="343" height="466" fill="white" transform="translate(1681 284)"/>
</clipPath>
<clipPath id="clip2">
<rect width="333" height="46" fill="white" transform="translate(1456 123)"/>
</clipPath>
<clipPath id="clip3">
<rect width="116.652" height="40" fill="white" transform="translate(166 106)"/>
</clipPath>
</defs>
</svg>
