<svg width="203" height="451" viewBox="0 0 203 451" fill="none" xmlns="http://www.w3.org/2000/svg">
<g clip-path="url(#clip0)">
<path d="M54.6946 104.993C55.4977 105.374 55.4554 107.318 54.9059 110.53C54.61 112.137 54.1874 114.039 53.7647 116.194C53.2997 118.35 52.7925 120.802 52.3699 123.422C51.9472 126.043 51.6513 128.832 51.609 131.707C51.609 133.144 51.6513 134.581 51.8204 136.018C51.9894 137.455 52.2008 138.892 52.5812 140.287C52.9616 141.682 53.3843 143.077 53.9338 144.429C54.4832 145.74 55.1595 147.008 55.9203 148.149C56.6812 149.29 57.5688 150.347 58.4987 151.319C58.7523 151.53 58.9636 151.826 59.2172 152.037C59.4708 152.249 59.7245 152.46 59.9781 152.714C60.5275 153.136 61.0348 153.559 61.6265 153.94C63.909 155.503 66.6141 156.729 69.4461 157.617C70.8832 158.04 72.278 158.462 73.7574 158.758C74.4759 158.927 75.1945 159.012 75.913 159.181C76.6316 159.265 77.3501 159.434 78.0687 159.477C79.5058 159.688 80.9006 159.772 82.2532 159.899C83.6481 159.984 85.0429 160.026 86.4377 160.026C89.1851 160.068 91.848 159.984 94.3418 159.942C96.8779 159.857 99.2449 159.815 101.401 159.815C103.556 159.815 105.543 159.942 107.234 160.237C108.924 160.491 110.361 160.914 111.503 161.505C112.602 162.097 113.405 162.9 113.785 163.83C114.165 164.802 114.165 165.901 113.743 167.127C113.32 168.353 112.475 169.663 111.249 171.016C110.023 172.368 108.332 173.763 106.261 175.158C104.19 176.511 101.654 177.863 98.6531 179.047C95.6944 180.23 92.2284 181.202 88.3821 181.836C86.48 182.174 84.4089 182.344 82.2955 182.47C80.1398 182.555 77.8996 182.555 75.6172 182.301C74.4759 182.217 73.3347 182.048 72.1512 181.879C71.01 181.667 69.8265 181.498 68.643 181.202C66.276 180.695 63.909 179.934 61.4997 179.004C56.7234 177.102 51.9049 174.355 47.6359 170.339C46.5792 169.367 45.5647 168.268 44.5926 167.169C44.1276 166.578 43.7049 166.028 43.24 165.479C42.7751 164.929 42.3946 164.295 42.0142 163.703C40.4503 161.336 39.1823 158.8 38.2524 156.307C37.3225 153.77 36.6885 151.277 36.3081 148.825C35.9277 146.374 35.8009 143.964 35.8431 141.682C35.8854 139.399 36.139 137.201 36.4771 135.088C36.8576 133.017 37.3648 130.988 37.9565 129.213C39.14 125.578 40.6194 122.45 42.0565 119.787C43.5359 117.124 45.0152 114.842 46.4101 112.94C47.8049 111.038 49.073 109.474 50.1719 108.248C52.3276 105.754 53.8915 104.613 54.6946 104.993Z" fill="#F6C67E"/>
<path d="M175.88 13.7421L12.7498 -0.0159607L0.0041622 151.11L163.135 164.868L175.88 13.7421Z" fill="#E59E91"/>
<path d="M202.148 15.9539L96.806 7.06961L84.0604 158.196L189.402 167.08L202.148 15.9539Z" fill="#C07D6D"/>
<path d="M132.907 18.8736L105.614 16.5717L103.042 47.0665L130.336 49.3684L132.907 18.8736Z" fill="#E59E91"/>
<path d="M99.1604 87.6635C100.048 84.747 102.415 82.4223 105.247 81.2811C108.079 80.1399 111.291 80.1399 114.208 80.9852C117.209 81.8306 119.998 83.5213 121.985 85.9305C123.972 88.3398 125.155 91.4254 125.155 94.5532C125.113 99.4985 122.196 103.894 119.364 107.994C114.546 99.9635 107.107 92.4821 99.1604 87.6635Z" fill="#0A2042"/>
<path d="M96.0748 80.3089C94.5109 79.0832 92.7779 77.8151 90.7913 77.8151C88.0439 77.8151 85.8037 80.5203 85.5501 83.2677C85.2965 86.0151 86.5645 88.678 88.2552 90.9182C91.5521 95.314 96.5397 98.4418 101.95 99.4985C105.12 100.133 108.459 100.048 111.629 99.2872C112.728 99.0336 115.603 98.5686 116.279 97.5965C117.378 96.0326 115.645 95.4408 114.335 94.4264C108.206 89.6924 102.161 85.0007 96.0748 80.3089Z" fill="#051C2C"/>
<path d="M80.3089 188.684C78.3646 205.38 78.1955 222.118 78.3223 238.898C94.0037 244.9 111.08 246.633 127.776 244.815C129.509 227.866 131.242 210.917 131.96 193.883C132.341 184.922 132.383 175.792 130.185 167.169C128.198 159.434 124.225 151.995 118.054 147.177C117.335 146.627 116.575 146.078 115.814 145.613C111.925 148.572 103.979 149.417 99.7098 147.177C97.3428 148.614 95.1872 150.431 93.2851 152.46C89.8614 156.18 87.1985 160.702 85.3387 165.479C82.4645 172.833 81.2388 180.78 80.3089 188.684Z" fill="white"/>
<path d="M93.3274 152.418C97.4696 153.686 101.95 153.897 106.177 153.01C108.459 152.545 110.657 151.742 112.728 150.727C114.377 149.882 115.941 148.91 117.336 147.726C117.378 147.388 117.462 147.05 117.505 146.712C117.505 146.585 117.547 146.458 117.547 146.289C117.462 145.824 117.42 145.359 117.378 144.852C116.744 140.076 116.237 135.257 115.729 130.481C115.264 126.043 114.842 121.605 114.419 117.209C109.347 119.407 104.655 122.112 99.9212 125.366C99.7521 128.367 99.4562 131.326 99.0758 134.285C98.7799 136.779 98.3573 139.273 97.9346 141.724C97.681 143.119 97.3851 144.472 97.1315 145.824C96.8356 147.092 96.5397 148.36 96.2439 149.628C95.2294 150.516 94.2573 151.446 93.3274 152.418Z" fill="#FFD699"/>
<path d="M97.9769 141.724C103.345 137.201 109.389 133.397 115.772 130.523C115.307 126.085 114.884 121.647 114.461 117.251C109.389 119.449 104.697 122.154 99.9635 125.409C99.7944 128.41 99.4985 131.368 99.1181 134.327C98.8222 136.779 98.4418 139.273 97.9769 141.724Z" fill="#F6C67E"/>
<path d="M94.0882 103.049C92.4821 106.769 93.0315 111.334 95.4408 114.546C97.3851 111.925 98.7377 108.755 99.3294 105.543C99.4985 104.697 99.5831 103.683 98.9913 103.049C98.4418 102.415 97.4697 102.33 96.6243 102.373C95.8212 102.457 94.8913 103.26 94.0882 103.049Z" fill="#23192E"/>
<path d="M113.32 125.916C112.348 127.564 111.122 129.086 109.643 130.312C107.572 132.045 105.078 133.228 102.373 133.482C97.8078 133.947 92.8625 131.284 91.3408 126.973C89.946 122.999 91.4254 118.604 93.2006 114.757C93.2851 114.588 93.3697 114.419 93.4542 114.25C95.314 110.235 97.4697 106.008 96.7934 101.612C101.696 97.7233 108.29 95.9903 113.701 99.0759C114.757 103.556 115.856 108.037 116.068 112.644C116.321 117.209 115.603 121.943 113.32 125.916Z" fill="#FFD699"/>
<path d="M65.3038 428.385C66.9946 435.655 66.276 443.474 63.2327 450.279C49.8338 449.307 35.9277 446.053 23.67 440.642C29.1226 433.541 36.8998 428.131 45.6493 426.06C51.3977 424.75 59.3863 429.188 65.3038 428.385Z" fill="#23192E"/>
<path d="M184.246 407.124C190.924 410.548 196.503 416.381 199.842 423.439C190.543 433.795 179.216 443.136 167.254 449.645C165.225 440.389 165.986 430.371 169.959 421.791C172.58 416.127 181.075 412.492 184.246 407.124Z" fill="#23192E"/>
<path d="M127.564 269.965C127.564 269.965 111.249 347.949 188.768 406.955L166.409 429.484C166.409 429.484 79.5904 364.941 91.7212 286.534L127.564 269.965Z" fill="#0A2042"/>
<path d="M80.5625 174.524C76.378 198.49 74.3491 233.868 76.1244 258.172C76.1244 258.172 28.9957 342.37 35.2936 428.892L68.3471 438.487C68.3471 438.487 80.2666 325.547 127.86 269.965L132.045 213.326L96.2862 206.056L94.2996 175.538L80.5625 174.524Z" fill="#0A2042"/>
<path d="M129.509 219.497C129.762 219.539 130.1 219.201 130.523 218.44C130.734 218.06 130.946 217.595 131.199 217.045C131.453 216.496 131.664 215.82 131.918 215.059C132.045 214.678 132.172 214.298 132.298 213.875C132.425 213.453 132.552 212.988 132.679 212.565C132.806 212.1 132.932 211.593 133.059 211.128C133.186 210.621 133.271 210.071 133.397 209.522C133.524 208.972 133.609 208.423 133.735 207.831C133.82 207.239 133.947 206.648 134.031 206.014C134.243 204.745 134.369 203.435 134.539 201.998C134.834 199.166 135.004 196.081 135.004 192.741C135.004 189.402 134.792 185.852 134.369 182.09C133.947 178.37 133.271 174.482 132.298 170.466C131.326 166.493 130.016 162.224 127.607 158.166C126.381 156.137 124.901 154.278 123.169 152.671C121.436 151.065 119.407 149.713 117.209 148.825C116.11 148.402 114.969 148.022 113.785 147.853C113.489 147.811 113.193 147.768 112.897 147.726C112.602 147.726 112.306 147.684 112.01 147.684C111.714 147.684 111.418 147.642 111.122 147.642C110.826 147.642 110.53 147.642 110.277 147.684C107.994 147.811 105.839 148.36 103.937 149.206C102.035 150.051 100.302 151.15 98.8222 152.333C98.4418 152.629 98.0614 152.925 97.7233 153.263C97.3851 153.601 97.047 153.897 96.7088 154.235C96.413 154.574 96.0748 154.912 95.779 155.25C95.4831 155.588 95.2295 155.968 94.9336 156.307C93.8346 157.701 92.947 159.223 92.2285 160.66C91.5099 162.097 90.9604 163.534 90.4955 164.929C89.6079 167.677 89.1429 170.255 88.847 172.495C88.5512 174.735 88.4666 176.637 88.4244 178.201C88.3821 181.329 88.5512 183.062 88.8893 183.104C89.2274 183.147 89.6501 181.456 90.2841 178.455C90.6223 176.933 91.0027 175.116 91.5522 173.045C92.1017 170.973 92.8202 168.649 93.8769 166.239C94.9336 163.872 96.3284 161.336 98.315 159.223C98.5686 158.969 98.8222 158.674 99.0758 158.42C99.3295 158.166 99.6253 157.913 99.8789 157.659C100.175 157.405 100.471 157.194 100.767 156.941C101.062 156.687 101.401 156.476 101.696 156.264C102.964 155.377 104.359 154.616 105.796 154.109C107.276 153.559 108.797 153.263 110.361 153.306H110.953C111.164 153.306 111.334 153.348 111.545 153.39L112.137 153.475L112.686 153.601C113.447 153.728 114.165 154.024 114.884 154.32C117.8 155.63 120.379 158.293 122.154 161.463C123.972 164.718 125.113 168.395 126 172.115C126.888 175.877 127.564 179.512 128.072 183.02C128.579 186.528 128.875 189.867 129.086 193.037C129.255 196.207 129.34 199.124 129.34 201.829C129.297 203.182 129.34 204.45 129.297 205.675C129.297 206.267 129.255 206.859 129.255 207.451C129.213 208.042 129.213 208.592 129.171 209.141C129.171 209.691 129.128 210.198 129.128 210.705C129.086 211.212 129.086 211.677 129.044 212.142C129.044 212.607 129.001 213.072 129.001 213.495C129.001 213.918 128.959 214.34 128.959 214.721C128.917 215.481 128.917 216.158 128.917 216.792C128.917 217.384 128.917 217.891 128.959 218.313C129.086 218.947 129.255 219.455 129.509 219.497Z" fill="#0A2042"/>
<path d="M123.507 99.583C123.464 100.809 123.042 102.035 122.619 103.218C121.182 107.234 119.195 111.08 117.505 114.969L115.264 112.39C113.193 108.924 112.094 104.867 112.221 100.851C107.825 104.571 101.274 105.543 95.8212 103.81C90.3264 102.077 85.9728 96.9624 85.4656 91.2563C85.3388 89.6924 85.4656 88.0862 86.1419 86.6913C86.8182 85.2965 88.0439 84.113 89.5656 83.7749C91.1717 83.4367 92.8625 84.0707 94.215 85.0429C95.5676 86.015 96.6243 87.2831 97.8078 88.4243C102.753 93.2429 109.77 95.7789 116.617 95.2717C118.561 95.1449 120.759 94.849 122.196 96.1171C123.169 97.0047 123.549 98.315 123.507 99.583Z" fill="url(#paint0_linear)"/>
<path d="M97.6388 180.357C97.4274 180.399 97.2584 180.441 97.047 180.484C92.9893 181.118 88.213 181.329 83.31 180.611C80.8584 180.272 78.3646 179.723 75.8285 178.92C73.2925 178.159 70.7987 177.102 68.3049 175.792C65.8111 174.482 63.3595 172.876 61.0348 170.931C58.7523 168.987 56.5544 166.789 54.6946 164.211C52.8348 161.675 51.3555 158.969 50.2142 156.264C49.073 153.559 48.3544 150.812 47.8472 148.149C47.34 145.486 47.1287 142.908 47.0864 140.414C47.0441 137.92 47.2132 135.553 47.5513 133.271C48.1854 128.706 49.4111 124.563 50.806 121.013C52.2008 117.462 53.807 114.377 55.4132 111.672C56.9771 109.009 58.541 106.726 59.9781 104.782C60.1472 104.528 60.3585 104.275 60.5276 104.021C59.5131 99.4985 60.2317 94.5954 62.5564 90.58C65.4729 85.5501 70.8832 82.0842 76.6739 81.5347C77.6461 81.4501 78.7028 81.7037 79.4636 82.38C81.6192 84.1975 80.1821 87.0295 78.4492 88.7202C76.9275 90.1996 75.0255 91.6367 74.7296 93.7078C74.5605 94.9759 75.0255 96.2862 75.9976 97.1315C76.1244 97.2583 76.2935 97.3429 76.4203 97.4697C77.8151 98.3573 77.9419 100.386 76.6316 101.401C75.8708 101.992 75.0677 102.5 74.2224 102.964C72.4471 103.894 70.5873 104.486 68.643 105.036C68.0935 108.037 67.2482 111.714 66.5719 115.898C66.1069 118.604 65.7265 121.562 65.5575 124.563C65.3884 127.607 65.4306 130.65 65.8956 133.735C66.1069 135.257 66.4028 136.821 66.8255 138.3C67.2059 139.78 67.7131 141.217 68.3471 142.569C68.9389 143.922 69.6152 145.19 70.4183 146.289C71.2213 147.43 72.0667 148.402 72.9966 149.29C73.8842 150.178 74.9409 150.938 76.0399 151.615C77.0966 152.333 78.2801 152.925 79.5058 153.475C81.9574 154.531 84.6203 155.334 87.2409 155.799C89.9037 156.349 92.4398 156.518 95.1027 156.645C97.1315 156.729 99.1604 156.687 101.105 156.687C97.4697 163.872 96.2439 172.326 97.6388 180.357Z" fill="#FFD699"/>
<path d="M115.856 112.813C114.715 112.982 113.109 113.489 111.672 114.546C110.192 115.603 109.178 116.913 108.671 117.927C108.628 118.012 108.586 118.096 108.544 118.181C106.684 115.687 104.571 113.024 101.527 112.306C99.2026 111.756 96.7088 112.475 94.68 113.743C94.1728 114.039 93.7078 114.377 93.2429 114.757C91.4676 118.646 89.946 122.999 91.3831 126.973C92.9047 131.326 97.8078 133.947 102.415 133.482C104.528 133.271 106.515 132.51 108.29 131.326C108.333 131.326 108.375 131.284 108.417 131.284C109.727 130.734 111.503 129.635 112.813 127.818C114.165 126.043 114.799 124.141 115.222 122.83C115.645 121.478 115.772 120.632 115.645 120.59C115.518 120.548 115.095 121.309 114.546 122.577C113.954 123.845 113.193 125.578 111.968 127.226C111.291 128.114 110.573 128.832 109.812 129.424C110.065 128.241 110.319 127.057 110.573 125.916C110.784 124.944 110.995 123.972 110.911 122.957C110.742 121.393 109.896 120.041 108.967 118.773C109.051 118.646 109.178 118.519 109.262 118.35C109.896 117.462 110.911 116.363 112.263 115.391C113.616 114.461 115.011 113.87 116.025 113.531C117.082 113.193 117.758 113.066 117.758 112.897C117.758 112.771 117.04 112.644 115.856 112.813Z" fill="#FCE8F6"/>
<path d="M114.63 115.603C114.715 114.335 115.433 113.109 116.532 112.475C116.532 112.475 116.532 112.475 116.575 112.475C117.293 112.094 118.139 111.883 118.942 112.094C119.956 112.39 120.717 113.32 121.055 114.335C121.731 116.237 121.097 118.519 119.576 119.872C118.054 121.182 115.687 121.478 113.912 120.59C114.292 118.899 114.504 117.293 114.63 115.603Z" fill="#FFD699"/>
</g>
<defs>
<linearGradient id="paint0_linear" x1="115.423" y1="118.846" x2="97.4107" y2="80.6541" gradientUnits="userSpaceOnUse">
<stop stop-color="#371A4F"/>
<stop offset="0.151" stop-color="#3D1D57"/>
<stop offset="0.4544" stop-color="#44215F"/>
<stop offset="1" stop-color="#462261"/>
</linearGradient>
<clipPath id="clip0">
<rect width="202.167" height="450.322" fill="white"/>
</clipPath>
</defs>
</svg>
