<svg width="166" height="89" viewBox="0 0 166 89" fill="none" xmlns="http://www.w3.org/2000/svg">
<g clip-path="url(#clip0)">
<path d="M139.496 74.1093C138.765 77.373 135.501 80.074 132.181 80.074C128.861 80.074 126.779 77.4293 127.511 74.1093C128.242 70.8455 131.506 68.1445 134.826 68.1445C138.089 68.1445 140.172 70.8455 139.496 74.1093Z" fill="white"/>
<path d="M110.066 25.5474L106.184 44.0606H98.2495L100.669 34.1006L87.5017 41.247L80.299 73.4341H92.0597L96.0549 54.3582H104.102L100.163 73.4341H111.923L121.602 25.5474H110.066Z" fill="white"/>
<path d="M101.119 30.6118L91.0468 23.4653L90.5966 25.5474H72.1397C61.4481 25.5474 53.5139 31.8497 51.5444 40.403C50.6441 44.4545 50.9817 47.6057 52.6698 49.8565C54.3017 52.0511 57.2278 53.4016 61.2793 54.0206L66.4 54.8084C67.9193 55.0335 68.8197 55.4836 69.2698 56.0463C69.7763 56.7779 69.8325 57.6782 69.6075 58.8036C68.9885 61.5047 66.9064 63.024 62.2922 63.024H51.3756L46.2549 25.885H37.3078L13.28 65.9501H37.2515L36.4637 56.3277H30.7241L37.9268 43.7792L40.4027 73.3779H59.9851C70.0576 73.3779 79.1173 68.1446 81.1431 58.5785C82.0997 54.2457 81.8183 50.7006 79.8488 48.2809C78.2732 46.3114 75.5159 44.9609 71.3519 44.3982L66.2312 43.6104C64.5993 43.3853 63.7553 42.8226 63.3051 42.2036C62.7424 41.4721 62.7424 40.628 62.8549 40.0091C63.3051 37.9833 65.4997 35.6762 69.5512 35.6762H88.402L87.9519 37.7582L101.119 30.6118Z" fill="white"/>
<path d="M136.683 59.7603C128.748 59.7603 120.871 66.1752 119.07 74.1094C117.269 82.0436 122.277 88.4586 130.324 88.4586C138.371 88.4586 146.249 82.0436 147.937 74.1094C149.681 66.1752 144.617 59.7603 136.683 59.7603ZM141.522 74.1094C140.565 78.4986 136.176 82.0436 131.731 82.0436C127.285 82.0436 124.472 78.4986 125.485 74.1094C126.498 69.7203 130.887 66.1752 135.276 66.1752C139.665 66.1752 142.422 69.7203 141.522 74.1094Z" fill="white"/>
<path d="M31.6807 69.4951C32.3559 70.7894 32.5248 72.4212 32.1871 74.1094C31.2305 78.4985 26.8414 82.0436 22.3959 82.0436C17.9505 82.0436 15.137 78.4985 16.1498 74.1094C16.5437 72.3649 17.4441 70.7894 18.682 69.4951H11.5356C10.6915 70.9582 10.0726 72.4775 9.73492 74.1094C7.93425 82.0436 12.9424 88.4585 20.9892 88.4585C29.0359 88.4585 36.9139 82.0436 38.602 74.1094C38.9397 72.4775 38.9959 70.9582 38.8271 69.4951H31.6807Z" fill="white"/>
<path d="M28.9234 69.4951H21.4393C19.8637 70.5643 18.5695 72.2524 18.1756 74.1094C17.4441 77.3731 19.5261 80.0741 22.8461 80.0741C26.1661 80.0741 29.4298 77.4294 30.1613 74.1094C30.5552 72.2524 30.0488 70.5643 28.9234 69.4951Z" fill="white"/>
<path d="M162.286 54.9771L164.368 44.792L164.931 41.9784C166.675 33.5378 165.831 25.6035 157.222 25.6035H126.104L116.2 73.434H117.494C119.801 64.9371 128.355 58.1283 137.02 58.1283C145.686 58.1283 151.201 64.9371 149.738 73.434H158.403H163.243L165.831 61.4483C166.45 58.6347 164.818 55.9337 162.286 54.9771ZM153.733 49.4625H132.462C130.493 49.4625 128.974 47.6618 129.367 45.6923L131.281 35.8449C131.562 34.3818 132.856 33.3127 134.376 33.3127H151.932C154.408 33.3127 156.321 35.5635 155.871 38.0394L153.733 49.4625ZM163.862 60.8293L163.58 62.1798C163.299 63.474 162.174 64.4306 160.823 64.4306H159.585C157.784 64.4306 156.434 62.7988 156.828 60.9981L157.109 59.6476C157.391 58.3533 158.516 57.3967 159.866 57.3967H161.104C162.905 57.3967 164.256 59.0849 163.862 60.8293Z" fill="white"/>
<path d="M18.5132 26.2224L17.3315 28.1919C17.1064 28.5858 17.3878 29.036 17.838 29.036H32.7498C33.2 29.036 33.4813 29.4861 33.2563 29.88L32.1871 31.6807C32.0746 31.8495 31.9058 31.9621 31.6807 31.9621H24.9844C24.8156 31.9621 24.5905 32.0746 24.478 32.2434L22.621 35.2258C22.3959 35.6197 22.6773 36.0698 23.1275 36.0698H28.9797C29.4298 36.0698 29.6549 36.52 29.4861 36.9139L27.798 39.84C27.6854 40.0088 27.5166 40.1214 27.2915 40.1214H13.899C13.7302 40.1214 13.5051 40.2339 13.3925 40.4027L12.2671 42.2034C12.042 42.5973 12.3234 43.0475 12.7173 43.0475H21.383C21.8332 43.0475 22.1146 43.4976 21.8895 43.8915L20.4264 46.3112C20.2014 46.7051 20.4827 47.1553 20.9329 47.1553H23.4651C23.9153 47.1553 24.1966 47.6054 23.9715 47.9993L22.3397 50.9254C22.2271 51.0943 22.0583 51.2068 21.8332 51.2068H8.83457C8.66576 51.2068 8.44068 51.3193 8.38441 51.4882L7.20271 53.2888C6.97763 53.6827 7.20271 54.1329 7.65288 54.1329H16.6C17.0502 54.1329 17.3315 54.5831 17.1064 54.977C16.9939 55.1458 16.8251 55.2583 16.6 55.2583H2.02576C1.80068 55.2583 1.63186 55.3709 1.51932 55.5397L0.0562699 58.2407C-0.168815 58.6346 0.112541 59.0848 0.562711 59.0848H14.9119C15.362 59.0848 15.6434 59.5349 15.4183 59.9288L12.0983 65.1621C11.8732 65.556 12.1546 66.0061 12.6047 66.0061H19.3573C19.5824 66.0061 19.7512 65.8936 19.8637 65.7248L24.5342 57.9031L25.7159 55.9336L26.1661 55.2021L26.8414 54.0766L28.023 52.0509L30.9491 47.099L33.4251 42.9912L35.2258 40.0651L37.5329 36.0136H37.5891L40.1214 31.9058L41.8658 28.9797L43.2163 26.7288C43.4414 26.3349 43.16 25.8848 42.7098 25.8848H19.0759C18.7946 25.941 18.6258 26.0536 18.5132 26.2224Z" fill="white"/>
<path d="M14.0115 50.2503H18.3444C18.5132 50.2503 18.6258 50.1941 18.682 50.0252L19.92 47.9432C20.0888 47.6618 19.8637 47.3242 19.5824 47.3242H15.5871C15.2495 47.3242 14.9119 47.493 14.6868 47.8307L13.6176 49.6313C13.4488 49.9127 13.6739 50.2503 14.0115 50.2503Z" fill="white"/>
<path d="M34.9444 2.9261C35.0007 2.41966 34.8881 1.85695 34.2129 1.85695C33.7627 1.85695 33.5376 2.02576 33.2563 2.25085C32.9186 2.5322 32.6373 3.09491 32.1309 4.67051C31.962 5.17695 31.6807 6.02102 31.6244 6.47118C31.5119 7.09017 31.8495 7.48407 32.3559 7.48407C33.0312 7.48407 33.4814 6.97762 33.7627 6.41491H35.901C34.9444 8.44068 33.4814 9.34101 31.9058 9.34101C30.0488 9.34101 29.261 8.04678 29.4861 6.64C29.5424 6.2461 29.7112 5.57085 30.0488 4.61424C30.6115 2.98237 31.0054 1.85695 31.962 1.01288C32.7498 0.281356 33.819 0 34.6631 0C36.5763 0 37.2515 1.35051 37.0264 2.9261H34.9444Z" fill="white"/>
<path d="M42.5973 4.89572L41.078 9.28487H39.221L39.4461 8.72216C39.1085 9.05979 38.5458 9.34114 37.8705 9.34114C36.6326 9.34114 36.1261 8.38453 36.2949 7.42792C36.4075 6.6964 36.6888 6.13369 37.139 5.73979C37.7017 5.23335 38.4332 5.06454 39.221 5.06454H40.6278L40.7404 4.83945C40.7966 4.72691 40.7966 4.67064 40.7966 4.55809C40.7966 4.22047 40.6278 3.93911 40.0651 3.93911C39.5024 3.93911 39.0522 4.22047 38.7146 4.50182L37.9268 3.15132C38.4895 2.64487 39.2773 2.25098 40.6278 2.25098C41.8658 2.25098 42.9912 2.81369 42.8224 4.27674C42.7661 4.50182 42.6536 4.72691 42.5973 4.89572ZM39.1648 6.47131C38.6021 6.47131 38.2644 6.86521 38.2082 7.25911C38.1519 7.54047 38.3207 7.76555 38.7146 7.76555C39.0522 7.76555 39.3899 7.59674 39.6149 7.42792C39.84 7.25911 39.9526 6.97775 40.0651 6.6964L40.1214 6.52759H39.1648V6.47131Z" fill="white"/>
<path d="M47.6055 4.5017C47.5492 4.38916 47.4366 4.10781 47.0427 4.10781C46.5926 4.10781 46.0861 4.50171 45.861 5.12069L44.4543 9.34103H42.4848L44.8482 2.3634H46.7051L46.48 2.98238C46.8739 2.58848 47.5492 2.30713 48.1682 2.30713C48.7871 2.30713 49.181 2.53221 49.4624 2.98238L47.6055 4.5017Z" fill="white"/>
<path d="M53.2888 8.83482C52.6698 10.6355 51.3756 11.6484 49.5749 11.6484C48.562 11.6484 47.8868 11.367 47.3803 10.6918L48.8997 9.45381C49.0685 9.62262 49.2373 9.90398 49.8 9.90398C50.6441 9.90398 51.1505 9.28499 51.3193 8.77855L51.4881 8.27211C51.0942 8.60974 50.6441 8.83482 50.0814 8.83482C49.181 8.83482 48.337 8.27211 48.5058 6.97787C48.562 6.64025 48.7309 6.13381 48.8997 5.51482C49.3498 4.10804 49.6875 3.37652 50.1939 2.87008C50.7566 2.36364 51.3756 2.19482 51.9946 2.19482C52.7261 2.19482 53.0637 2.47618 53.3451 2.87008L53.5702 2.2511H55.4271L53.2888 8.83482ZM52.1634 4.10804C51.6007 4.10804 51.3193 4.44567 50.9254 5.62737C50.8129 6.02126 50.7003 6.30262 50.7003 6.47143C50.6441 6.86533 50.7566 7.14669 51.2068 7.14669C51.7695 7.14669 52.0508 6.80906 52.4447 5.62737C52.5573 5.23347 52.6698 4.95211 52.6698 4.7833C52.6698 4.33313 52.5573 4.10804 52.1634 4.10804Z" fill="white"/>
<path d="M61.0543 5.85221C60.5478 7.25899 60.2102 7.93425 59.4787 8.6095C58.916 9.11594 58.1282 9.45357 57.2278 9.45357C56.0461 9.45357 54.977 8.72204 55.2021 7.14645C55.2583 6.69628 55.4271 6.18984 55.5397 5.90849C56.0461 4.50171 56.3838 3.82645 57.1153 3.1512C57.678 2.64476 58.4658 2.30713 59.3661 2.30713C60.5478 2.30713 61.617 3.03865 61.3919 4.61425C61.2794 5.00815 61.1668 5.51459 61.0543 5.85221ZM58.916 4.10781C58.6909 4.10781 58.4658 4.16408 58.297 4.33289C57.9594 4.61425 57.7343 5.12069 57.5092 5.85221C57.2841 6.52747 57.2278 6.75255 57.2278 6.8651C57.1716 7.31527 57.3404 7.59662 57.7343 7.59662C57.9594 7.59662 58.1844 7.54035 58.3533 7.37154C58.6909 7.09018 58.916 6.58374 59.1411 5.85221C59.3661 5.17696 59.4224 4.95187 59.4224 4.83933C59.4787 4.33289 59.3099 4.10781 58.916 4.10781Z" fill="white"/>
<path d="M70.6204 2.47605C70.339 1.96961 69.8326 1.85707 69.2699 1.85707C68.4258 1.85707 67.8631 2.41978 67.8068 2.86995C67.7505 3.37639 68.1444 3.48893 68.4821 3.5452L69.1573 3.71402C70.6766 4.10791 71.0705 4.89571 70.9017 6.18995C70.5641 8.44079 68.6509 9.34113 66.7377 9.34113C65.2183 9.34113 64.4305 9.00351 63.7553 8.0469L65.4434 6.69639C65.781 7.20283 66.4 7.42791 67.1878 7.42791C67.9756 7.42791 68.6509 6.97774 68.7634 6.41503C68.8197 5.90859 68.5946 5.73978 68.1444 5.62724L67.4692 5.45842C65.7248 4.95198 65.6122 3.88283 65.7248 3.20758C66.0061 1.18181 67.6943 -0.0561523 69.8326 -0.0561523C70.958 -0.0561523 71.8583 0.337746 72.3085 1.12554L70.6204 2.47605Z" fill="white"/>
<path d="M77.4291 6.47131H73.5464C73.5464 6.58386 73.4902 6.6964 73.4902 6.75267C73.4339 7.31538 73.659 7.70928 74.3342 7.70928C74.8969 7.70928 75.4034 7.4842 75.8535 7.03403L76.6413 8.38453C75.8535 9.05979 74.8407 9.39742 73.8278 9.39742C72.7586 9.39742 71.2956 8.89098 71.5769 6.92148C71.9146 4.44555 73.4339 2.25098 75.6847 2.25098C77.0915 2.25098 78.0481 3.20759 77.823 4.78318C77.823 5.34589 77.598 5.9086 77.4291 6.47131ZM75.3471 3.93911C74.8407 3.93911 74.3342 4.27674 73.9403 5.17708H75.9098C75.9661 5.06454 75.9661 4.89572 75.9661 4.83945C76.0786 4.27674 75.9098 3.93911 75.3471 3.93911Z" fill="white"/>
<path d="M82.7749 4.50182C82.7186 4.38928 82.6061 4.10793 82.2122 4.10793C81.762 4.10793 81.2556 4.50182 81.0305 5.12081L79.68 9.28487H77.6542L79.9614 2.30725H81.8183L81.6495 2.92623C82.0434 2.53233 82.7186 2.25098 83.3376 2.25098C83.9566 2.25098 84.3505 2.47606 84.6881 2.92623L82.7749 4.50182Z" fill="white"/>
<path d="M86.4888 9.34091H84.9695L84.9132 2.36328H86.8264L86.6576 6.24599L89.021 2.36328H91.103L86.4888 9.34091Z" fill="white"/>
<path d="M91.497 9.3409H89.5275L91.722 2.64463H93.6915L91.497 9.3409ZM94.0292 1.63175H92.0597L92.5661 0.0561523H94.5356L94.0292 1.63175Z" fill="white"/>
<path d="M97.9682 4.55786C97.7993 4.2765 97.6305 4.10769 97.2929 4.10769C97.0678 4.10769 96.7865 4.22023 96.5614 4.44532C96.2238 4.72667 95.9424 5.23311 95.7736 5.8521C95.661 6.13345 95.6048 6.35854 95.5485 6.69616C95.4922 7.2026 95.5485 7.5965 96.1112 7.5965C96.4488 7.5965 96.7865 7.42769 97.1241 7.14633L98.0244 8.60939C97.4054 9.11583 96.5614 9.45345 95.7173 9.45345C94.5919 9.45345 93.3539 8.7782 93.6353 6.97752C93.6915 6.63989 93.7478 6.24599 93.8604 5.90837C94.817 2.81345 96.5614 2.36328 97.7431 2.36328C98.756 2.36328 99.3187 2.81345 99.6 3.31989L97.9682 4.55786Z" fill="white"/>
<path d="M105.002 6.47131H101.119C101.119 6.58386 101.063 6.6964 101.063 6.75267C101.007 7.31538 101.288 7.70928 101.907 7.70928C102.47 7.70928 102.976 7.4842 103.426 7.03403L104.214 8.38453C103.426 9.05979 102.414 9.39742 101.401 9.39742C100.332 9.39742 98.8685 8.89098 99.1498 6.92148C99.4875 4.44555 100.951 2.25098 103.258 2.25098C104.664 2.25098 105.621 3.20759 105.452 4.78318C105.396 5.34589 105.227 5.9086 105.002 6.47131ZM102.976 3.93911C102.47 3.93911 101.963 4.27674 101.57 5.17708H103.539C103.595 5.06454 103.595 4.89572 103.595 4.83945C103.708 4.27674 103.483 3.93911 102.976 3.93911Z" fill="white"/>
<path d="M110.46 4.38928C110.235 4.05165 109.729 3.93911 109.391 3.93911C108.772 3.93911 108.435 4.1642 108.435 4.44555C108.435 4.61437 108.491 4.78318 108.772 4.83945L109.616 5.00826C110.798 5.23335 111.136 5.96487 111.023 6.86521C110.911 7.65301 110.517 8.21572 110.066 8.66589C109.447 9.2286 108.435 9.45369 107.591 9.45369C106.353 9.45369 105.565 9.05979 105.058 8.38453L106.634 7.0903C106.859 7.42792 107.253 7.70928 107.928 7.70928C108.603 7.70928 108.997 7.42792 109.054 7.14657C109.11 6.92148 108.941 6.80894 108.66 6.75267L107.816 6.58386C106.69 6.35877 106.353 5.68352 106.409 4.95199C106.521 4.27674 106.803 3.60148 107.365 3.09504C107.984 2.53233 108.829 2.25098 109.785 2.25098C110.798 2.25098 111.417 2.47606 111.98 3.15132L110.46 4.38928Z" fill="white"/>
<path d="M120.702 7.31525L121.715 9.34102H119.351L119.014 8.66576C118.338 9.11593 117.607 9.39729 116.706 9.39729C115.581 9.39729 114.287 8.89085 114.512 7.0339C114.737 5.40203 115.75 4.67051 116.819 4.05152C116.538 3.43254 116.425 3.03864 116.481 2.47593C116.594 1.57559 117.269 0 119.576 0C121.658 0 121.602 1.51932 121.546 2.08203C121.433 2.86983 120.814 3.54508 120.139 3.99525L119.295 4.44542L119.914 5.73966C120.308 5.40203 120.589 4.89559 120.758 4.44542H122.615C122.165 5.68339 121.546 6.58373 120.702 7.31525ZM117.438 5.4583C116.932 5.73966 116.538 6.18983 116.481 6.69627C116.425 7.20271 116.706 7.54034 117.157 7.54034C117.607 7.54034 118.001 7.31525 118.226 7.09017L117.438 5.4583ZM119.239 1.68814C118.676 1.68814 118.507 2.19458 118.451 2.47593C118.395 2.75729 118.563 2.98237 118.62 3.15119L119.014 2.9261C119.407 2.70102 119.633 2.47593 119.633 2.19458C119.689 1.91322 119.52 1.68814 119.239 1.68814Z" fill="white"/>
<path d="M29.5424 14.4056C29.261 13.8992 28.7546 13.7866 28.1919 13.7866C27.3478 13.7866 26.7851 14.3493 26.6726 14.7995C26.6163 15.306 27.0102 15.4185 27.3478 15.4748L28.0231 15.6436C29.5424 16.0375 29.9363 16.8253 29.7112 18.1195C29.3736 20.3704 27.4604 21.2707 25.5471 21.2707C24.0278 21.2707 23.1837 20.9331 22.5648 19.9765L24.2529 18.626C24.5905 19.1324 25.2095 19.3575 25.9973 19.3575C26.8414 19.3575 27.4604 18.9073 27.5729 18.3446C27.6292 17.8382 27.4041 17.6693 26.9539 17.5568L26.2787 17.4443C24.5343 16.9378 24.4217 15.8687 24.5342 15.1934C24.8156 13.1677 26.56 11.9297 28.6983 11.9297C29.8237 11.9297 30.7241 12.3236 31.1742 13.1114L29.5424 14.4056Z" fill="white"/>
<path d="M34.6068 16.1502H33.5939L32.581 19.0763C32.581 19.1326 32.581 19.1326 32.5248 19.2451C32.4685 19.4702 32.6373 19.5827 32.8624 19.5827H33.4814L32.9187 21.2709H32.0183C30.8929 21.2709 30.3864 20.5393 30.499 19.639C30.5553 19.3576 30.6115 19.1888 30.6115 19.0763L31.6244 16.1502H31.0617L31.6244 14.5746H32.1871L32.8624 12.5488H34.8319L34.1566 14.5746H35.1695L34.6068 16.1502Z" fill="white"/>
<path d="M40.6278 17.7819C40.1214 19.1887 39.7837 19.8639 39.0522 20.5392C38.4895 21.0456 37.7017 21.3833 36.8014 21.3833C35.6197 21.3833 34.5505 20.6517 34.7756 19.0761C34.8319 18.626 35.0007 18.1195 35.1132 17.8382C35.6197 16.4314 35.9573 15.7561 36.6888 15.0809C37.2515 14.5744 38.0393 14.2368 38.9397 14.2368C40.1214 14.2368 41.1905 14.9683 40.9654 16.5439C40.8529 16.9378 40.7404 17.4443 40.6278 17.7819ZM38.4332 16.0375C38.2082 16.0375 37.9831 16.0938 37.8142 16.2626C37.4766 16.5439 37.2515 17.0504 37.0265 17.7819C36.8014 18.4572 36.7451 18.6822 36.7451 18.7948C36.6888 19.245 36.8576 19.5263 37.2515 19.5263C37.4766 19.5263 37.7017 19.47 37.8705 19.3012C38.2082 19.0199 38.4332 18.5134 38.6583 17.7819C38.8834 17.1066 38.9397 16.8816 38.9397 16.769C38.9959 16.3188 38.8271 16.0375 38.4332 16.0375Z" fill="white"/>
<path d="M45.8048 16.4315C45.7485 16.319 45.6359 16.0376 45.242 16.0376C44.7919 16.0376 44.2854 16.4315 44.0604 17.0505L42.6536 21.2146H40.6841L43.0475 14.2369H44.9044L44.6793 14.8559C45.0732 14.462 45.7485 14.1807 46.3675 14.1807C46.9864 14.1807 47.3803 14.4057 47.6617 14.8559L45.8048 16.4315Z" fill="white"/>
<path d="M52.8949 16.8816L51.3756 21.2707H49.5187L49.6875 20.708C49.3498 21.0456 48.7871 21.327 48.1119 21.327C46.8739 21.327 46.3675 20.3704 46.48 19.4138C46.5926 18.6822 46.8739 18.1195 47.3241 17.7256C47.8868 17.2192 48.6183 17.0504 49.4061 17.0504H50.8129L50.9254 16.8253C50.9817 16.7127 50.9817 16.6565 50.9817 16.5439C51.038 16.2063 50.8692 15.925 50.2502 15.925C49.6875 15.925 49.181 16.2063 48.8997 16.4877L48.1119 15.1372C48.6746 14.6307 49.4624 14.2368 50.8129 14.2368C52.0509 14.2368 53.2326 14.7995 53.0075 16.2626C53.0637 16.4314 52.9512 16.6565 52.8949 16.8816ZM49.4624 18.4009C48.8997 18.4009 48.562 18.7948 48.5058 19.1887C48.4495 19.47 48.6183 19.6951 49.0122 19.6951C49.3498 19.6951 49.6875 19.5263 49.9126 19.3575C50.1376 19.1887 50.2502 18.9073 50.3627 18.626L50.419 18.4572H49.4624V18.4009Z" fill="white"/>
<path d="M58.1282 20.764C57.5092 22.5647 56.2149 23.5776 54.4143 23.5776C53.4014 23.5776 52.7261 23.2962 52.2197 22.621L53.739 21.383C53.9078 21.5518 54.0766 21.8332 54.6394 21.8332C55.4834 21.8332 55.9899 21.2142 56.1587 20.7077L56.3275 20.2013C55.9336 20.5389 55.4834 20.764 54.9207 20.764C54.0204 20.764 53.1763 20.2013 53.3451 18.9071C53.4014 18.5694 53.5702 18.063 53.739 17.444C54.1892 16.0372 54.5268 15.3057 55.0333 14.7993C55.596 14.2928 56.2149 14.124 56.8339 14.124C57.5655 14.124 57.9594 14.4054 58.1844 14.7993L58.4095 14.1803H60.2665L58.1282 20.764ZM57.0027 16.0372C56.44 16.0372 56.1587 16.3749 55.7648 17.5566C55.6522 17.9505 55.5397 18.2318 55.5397 18.4006C55.4834 18.7945 55.596 19.0759 56.0461 19.0759C56.6088 19.0759 56.8902 18.7383 57.2841 17.5566C57.3966 17.1627 57.5092 16.8813 57.5092 16.7125C57.5655 16.3186 57.4529 16.0372 57.0027 16.0372Z" fill="white"/>
<path d="M65.9498 18.4572H62.0671C62.0671 18.5697 62.0108 18.6822 62.0108 18.7385C61.9546 19.3012 62.1797 19.6951 62.8549 19.6951C63.4176 19.6951 63.9241 19.47 64.3742 19.0199L65.162 20.3704C64.3742 21.0456 63.3614 21.3833 62.3485 21.3833C61.2793 21.3833 59.8163 20.8768 60.0976 18.9073C60.4353 16.4314 61.9546 14.2368 64.2617 14.2368C65.6685 14.2368 66.6251 15.1934 66.4 16.769C66.3437 17.2755 66.1186 17.8944 65.9498 18.4572ZM63.8678 15.8687C63.3614 15.8687 62.8549 16.2063 62.461 17.1066H64.4305C64.4868 16.9941 64.4868 16.8253 64.5431 16.769C64.5993 16.2063 64.4305 15.8687 63.8678 15.8687Z" fill="white"/>
<path d="M75.6848 14.4057C75.3472 13.8993 74.897 13.7868 74.3343 13.7868C73.4902 13.7868 72.9275 14.3495 72.8712 14.7996C72.815 15.3061 73.2088 15.4186 73.5465 15.4749L74.2217 15.6437C75.741 16.0376 76.135 16.8254 75.9661 18.1196C75.6848 20.3705 73.7153 21.2708 71.8021 21.2708C70.2827 21.2708 69.4387 20.9332 68.8197 19.9766L70.5078 18.6261C70.9017 19.1325 71.4644 19.3576 72.2522 19.3576C73.0963 19.3576 73.7153 18.9074 73.8278 18.3447C73.8841 17.8383 73.659 17.6695 73.2089 17.5569L72.5336 17.3881C70.7892 16.8817 70.6767 15.8125 70.7892 15.1373C71.0705 13.1115 72.7587 11.8735 74.897 11.8735C76.0224 11.8735 76.9228 12.2674 77.4292 13.0552L75.6848 14.4057Z" fill="white"/>
<path d="M82.4936 17.7819C82.0434 19.1887 81.6495 19.8639 80.9742 20.5392C80.4115 21.0456 79.6237 21.3833 78.7234 21.3833C77.5417 21.3833 76.4726 20.6517 76.6976 19.0761C76.7539 18.626 76.9227 18.1195 77.0353 17.8382C77.4854 16.4314 77.8793 15.7561 78.5546 15.0809C79.1173 14.5744 79.9051 14.2368 80.8054 14.2368C81.9871 14.2368 83.0563 14.9683 82.8312 16.5439C82.7749 16.9378 82.6061 17.4443 82.4936 17.7819ZM80.3553 16.0375C80.1302 16.0375 79.9051 16.0938 79.7363 16.2626C79.3986 16.5439 79.1736 17.0504 78.9485 17.7819C78.7234 18.4572 78.6671 18.6822 78.6671 18.7948C78.6109 19.245 78.7797 19.5263 79.1736 19.5263C79.3986 19.5263 79.6237 19.47 79.7925 19.3012C80.1302 19.0199 80.3553 18.5134 80.5803 17.7819C80.8054 17.1066 80.8617 16.8816 80.8617 16.769C80.918 16.3188 80.7492 16.0375 80.3553 16.0375Z" fill="white"/>
<path d="M85.2509 19.076C85.2509 19.1323 85.1946 19.1886 85.1946 19.2448C85.1946 19.4136 85.3071 19.5262 85.5322 19.5262H86.2638L85.701 21.2143H84.7444C83.619 21.2143 83.0563 20.4828 83.2251 19.5824C83.2814 19.3574 83.2814 19.1886 83.3376 19.0197L85.6448 11.9858H87.6143L85.2509 19.076Z" fill="white"/>
<path d="M92.1722 21.2706H90.3153L90.4841 20.6516C89.9777 21.1018 89.3024 21.3269 88.7397 21.3269C88.0644 21.3269 87.1641 20.8767 87.3329 19.4136C87.3892 19.1323 87.4454 18.8509 87.5017 18.6259L88.9085 14.293H90.878L89.4712 18.5133C89.4149 18.6259 89.4149 18.7384 89.3587 18.8509C89.3024 19.3011 89.5838 19.5262 89.8088 19.5262C90.259 19.5262 90.7092 19.3011 90.9905 18.5133L92.3973 14.293H94.3668L92.1722 21.2706Z" fill="white"/>
<path d="M98.4183 16.1502H97.4054L96.4488 19.0763C96.4488 19.1326 96.4488 19.1326 96.3926 19.2451C96.3363 19.4702 96.5051 19.5827 96.7302 19.5827H97.3492L96.7865 21.2709H95.8861C94.7607 21.2709 94.198 20.5393 94.3668 19.639C94.4231 19.3576 94.4793 19.1888 94.4793 19.0763L95.436 16.1502H94.8732L95.3797 14.5746H95.9424L96.6176 12.5488H98.5871L97.9119 14.5746H98.9248L98.4183 16.1502Z" fill="white"/>
<path d="M99.9939 21.2705H98.0244L100.219 14.5742H102.188L99.9939 21.2705ZM102.47 13.6176H100.5L101.007 12.042H102.976L102.47 13.6176Z" fill="white"/>
<path d="M107.872 17.7819C107.422 19.1887 107.028 19.8639 106.353 20.5392C105.79 21.0456 105.002 21.3833 104.102 21.3833C102.92 21.3833 101.851 20.6517 102.076 19.0761C102.132 18.626 102.301 18.1195 102.357 17.8382C102.807 16.4314 103.201 15.7561 103.877 15.0809C104.439 14.5744 105.227 14.2368 106.127 14.2368C107.309 14.2368 108.378 14.9683 108.153 16.5439C108.153 16.9378 107.984 17.4443 107.872 17.7819ZM105.734 16.0375C105.508 16.0375 105.283 16.0938 105.115 16.2626C104.777 16.5439 104.608 17.0504 104.327 17.7819C104.102 18.4572 104.045 18.6822 104.045 18.7948C103.989 19.245 104.158 19.5263 104.552 19.5263C104.777 19.5263 105.002 19.47 105.171 19.3012C105.508 19.0199 105.677 18.5134 105.959 17.7819C106.184 17.1066 106.24 16.8816 106.24 16.769C106.296 16.3188 106.127 16.0375 105.734 16.0375Z" fill="white"/>
<path d="M114.906 16.9378L113.499 21.2707H111.529L112.88 17.0504C112.936 16.9378 112.936 16.8253 112.936 16.7127C112.993 16.2626 112.711 16.0375 112.43 16.0375C111.98 16.0375 111.529 16.2626 111.248 17.0504L109.898 21.2707H108.041L110.292 14.2931H112.148L111.98 14.9121C112.486 14.4619 113.161 14.2368 113.724 14.2368C114.399 14.2368 115.3 14.687 115.131 16.15C115.075 16.4314 115.018 16.7127 114.906 16.9378Z" fill="white"/>
<path d="M120.139 16.319C119.914 15.9813 119.407 15.8688 119.07 15.8688C118.451 15.8688 118.113 16.0939 118.113 16.3752C118.113 16.5441 118.169 16.7129 118.507 16.7691L119.351 16.938C120.533 17.163 120.871 17.8946 120.758 18.7949C120.645 19.5827 120.252 20.1454 119.801 20.5956C119.182 21.1583 118.169 21.3834 117.325 21.3834C116.087 21.3834 115.3 20.9895 114.793 20.3142L116.369 19.02C116.594 19.3576 116.988 19.639 117.663 19.639C118.338 19.639 118.732 19.3576 118.788 19.0763C118.845 18.8512 118.676 18.7386 118.395 18.6824L117.551 18.5135C116.425 18.2885 116.087 17.6132 116.144 16.8817C116.256 16.2064 116.538 15.5312 117.1 15.0247C117.719 14.462 118.563 14.1807 119.52 14.1807C120.533 14.1807 121.208 14.4057 121.715 15.081L120.139 16.319Z" fill="white"/>
<path d="M156.04 23.7467H126.61L130.212 6.58398L141.184 8.94737C149.85 10.523 156.715 18.626 158.628 23.7467H156.04Z" fill="white"/>
</g>
<defs>
<clipPath id="clip0">
<rect width="166" height="88.4583" fill="white"/>
</clipPath>
</defs>
</svg>
